<svg xmlns="http://www.w3.org/2000/svg" width="36" height="36" viewBox="0 0 36 36">
    <g fill="none" fill-rule="evenodd" stroke-linecap="round" stroke-linejoin="round">
        <g stroke="#3ABEFF" stroke-width="1.3">
            <g>
                <path d="M28.965 30.227H8.263C7.014 30.227 6 29.214 6 27.964V7.262C6 6.012 7.014 5 8.263 5h20.702c1.25 0 2.262 1.013 2.262 2.262v20.702c0 1.25-1.013 2.263-2.262 2.263z" transform="translate(-2196 -2602) translate(2196 2602)"/>
                <path d="M20.882 26.158h-4.537c-1.249 0-2.262-1.013-2.262-2.264V11.332c0-1.25 1.013-2.262 2.262-2.262h4.537c1.25 0 2.263 1.011 2.263 2.262v12.562c0 1.25-1.012 2.264-2.263 2.264z" transform="translate(-2196 -2602) translate(2196 2602)"/>
                <path d="M20.63 13.893c0 1.113-.903 2.016-2.016 2.016s-2.016-.903-2.016-2.016.903-2.016 2.016-2.016 2.016.903 2.016 2.016zM18.614 18.581L18.614 23.815" transform="translate(-2196 -2602) translate(2196 2602)"/>
            </g>
        </g>
    </g>
</svg>
