<svg xmlns="http://www.w3.org/2000/svg" width="36" height="36" viewBox="0 0 36 36">
    <g fill="none" fill-rule="evenodd">
        <g>
            <g>
                <path fill="#91F279" d="M6.47 12.932c.222 0 .42.119.55.301.684.964 1.806 1.589 3.077 1.589 1.27 0 2.393-.625 3.076-1.589.129-.182.328-.301.55-.301h.003c3.214 0 5.82 2.606 5.82 5.82v2.656c0 .537-.435.973-.973.973H1.62c-.538 0-.974-.436-.974-.973v-2.656c0-3.214 2.606-5.82 5.821-5.82h.002z" transform="translate(-23 -138) translate(31 145)"/>
                <path stroke="#414042" stroke-linecap="round" stroke-linejoin="round" stroke-width="1.3" d="M10.097 10.097h0c-2.088 0-3.78-1.693-3.78-3.78v-1.89c0-2.087 1.692-3.78 3.78-3.78 2.087 0 3.78 1.693 3.78 3.78v1.89c0 2.087-1.693 3.78-3.78 3.78zM6.47 12.932c.222 0 .42.119.55.301.684.964 1.806 1.589 3.077 1.589 1.27 0 2.393-.625 3.076-1.589.129-.182.328-.301.55-.301h.003c3.214 0 5.82 2.606 5.82 5.82v2.656c0 .537-.435.973-.973.973H1.62c-.538 0-.974-.436-.974-.973v-2.656c0-3.214 2.606-5.82 5.821-5.82h.002z" transform="translate(-23 -138) translate(31 145)"/>
            </g>
        </g>
    </g>
</svg>
