{
    "chapters": [
            {
                "questions": {
                    "question": [
                        {
                            "answers": {
                                "answer": [
                                    {
                                        "_id": "0",
                                        "_caption": "См. правила размещения датчиков в паспорте устройства либо ознакомьтесь с инструкцией быстрого старта контроллера IP-дом от Теле-Плюс."
                                    },
                                    {
                                        "_id": "1",
                                        "_caption": "(ссылка)",
                                        "_link": "https://tele-plus.ru/files/info/ip-dom-info.pdf"
                                    }
                                ]
                            },
                            "_id": "0",
                            "_caption": "Как правильно установить датчики?"
                        },
                        {
                            "answers": {
                                "answer": {
                                    "_id": "0",
                                    "_caption": "По умолчанию роутер настроен правильно, для работы контроллера нужна динамическая маршрутизация."
                                }
                            },
                            "_id": "1",
                            "_caption": "Как настроить контроллер для взаимодействия через роутер?"
                        }
                    ]
                },
                "_id": "0",
                "_caption": "1. Установка оборудования на объекте"
            },
            {
                "questions": {
                    "question": [
                        {
                            "answers": {
                                "answer": {
                                    "_id": "0",
                                    "_caption": "Внимательно заполнять свои данные без ошибок. Если не получается, звонить в техподдержку 83462555333."
                                }
                            },
                            "_id": "0",
                            "_caption": "Ошибки при активации аккаунта."
                        },
                        {
                            "answers": {
                                "answer": {
                                    "_id": "0",
                                    "_caption": "Для проведения любых изменений в настройках прибор нужно снять с охраны и проверить наличие связи с сервером"
                                }
                            },
                            "_id": "1",
                            "_caption": "Не получается изменить название раздела в приложении IP-дом Теле-Плюс после отправки запроса."
                        },
                        {
                            "answers": {
                                "answer": {
                                    "_id": "0",
                                    "_caption": "В окне «Главное» выбираете объект, в который требуется добавить датчик и с помощью экранной кнопки +, запускается процедура регистрации нового датчика с подсказками."
                                }
                            },
                            "_id": "2",
                            "_caption": "Как добавить новый датчик?"
                        },
                        {
                            "answers": {
                                "answer": {
                                    "_id": "0",
                                    "_caption": "Пройти повторную процедуру добавления устройства. Процедура не проходит только в том случае, если устройство с предыдущего места не удалено, находиться на ОХРАНЕ, нет связи с сервером."
                                }
                            },
                            "_id": "3",
                            "_caption": "Как добавить контроллер на тот же аккаунт после его удаления через мобильное приложение?"
                        },
                        {
                            "answers": {
                                "answer": {
                                    "_id": "0",
                                    "_caption": "Пройти повторно добавление датчика в устройство. Устройство должно быть снято с ОХРАНЫ, есть связь с сервером."
                                }
                            },
                            "_id": "4",
                            "_caption": "Как добавить датчик на тот же аккаунт после его удаления?"
                        },
                        {
                            "answers": {
                                "answer": {
                                    "_id": "0",
                                    "_caption": "Нажмите «меню-события», задайте интересующий вас период."
                                }
                            },
                            "_id": "5",
                            "_caption": "Как посмотреть список событий за определенный период?"
                        },
                        {
                            "answers": {
                                "answer": {
                                    "_id": "0",
                                    "_caption": "Да, это осуществляется через «меню-опции-безопасность». Внимание! Отключение такого запроса при утере мобильного устройства открывает доступ к системе безопасности. Отключение запроса пин-кода для приложения возможно только, если включена блокировка в настройках мобильного устройства."
                                }
                            },
                            "_id": "6",
                            "_caption": "Можно ли отключить запрос пин-кода при входе в приложение?"
                        },
                        {
                            "answers": {
                                "answer": {
                                    "_id": "0",
                                    "_caption": "Выбор необходимых оповещений производится через «меню-опции-настройка оповещений»."
                                }
                            },
                            "_id": "7",
                            "_caption": "Можно ли отключить оповещение на отдельные категории сообщений?"
                        },
                        {
                            "answers": {
                                "answer": {
                                    "_id": "0",
                                    "_caption": "Настройка осуществляется через «меню-опции-настройка оповещений»."
                                }
                            },
                            "_id": "8",
                            "_caption": "Как установить разные мелодии для различных категории сообщений?"
                        },
                        {
                            "answers": {
                                "answer": {
                                    "_id": "0",
                                    "_caption": "В контроллере реализован алгоритм постоянной проверки качества связи оператора GSM даже в случае работы контроллера через проводной интернет. В случае временного ухудшения качества GSM-связи в месте установки контроллера предусмотрена ручное отключение информирования о качестве связи -  перейдите из окна «Главное» в окно «Опции» - «Настройки оповещений» и исключите сообщения «Связь» из списка сообщений получаемых пользователем."
                                }
                            },
                            "_id": "9",
                            "_caption": "Как отключить оповещение при кратковременных потерях связи по GSM?"
                        },
                        {
                            "answers": {
                                "answer": {
                                    "_id": "0",
                                    "_caption": "Около 30 Мбайт."
                                }
                            },
                            "_id": "10",
                            "_caption": "Какой трафик расходуется в месяц?"
                        }
                    ]
                },
                "_id": "1",
                "_caption": "2. Использование мобильного приложения"
            },
            {
                "questions": {
                    "question": [
                        {
                            "answers": {
                                "answer": {
                                    "_id": "0",
                                    "_caption": "Радиус действия датчиков в зоне прямой видимости не менее 100 метров."
                                }
                            },
                            "_id": "0",
                            "_caption": "Какой радиус действия датчиков?"
                        },
                        {
                            "answers": {
                                "answer": {
                                    "_id": "0",
                                    "_caption": "Максимальное количество датчиков, которое можно подключить к системе, не может превышать 30-ти."
                                }
                            },
                            "_id": "1",
                            "_caption": "Какое максимальное количество датчиков можно подключить к одному контроллеру?"
                        },
                        {
                            "answers": {
                                "answer": {
                                    "_id": "0",
                                    "_caption": "Датчик открытия двери, Датчик движения, не реагирующий на животных (до 20 кг.), Датчик движения «штора» для перекрытия проемов дверей/окон, Датчик движения для установки на потолке , Совмещенный датчик движения и разбития стекла для установки на потолке , Датчик дыма, Датчик разбития стекла, Датчик протечки воды, Датчик температуры, Оповещатель светозвуковой, Блок реле радиоканальный, Индивидуальная тревожная кнопка, Брелок управления с функцией тревожной кнопки"
                                }
                            },
                            "_id": "2",
                            "_caption": "Какие датчики поддерживаются контроллером?"
                        },
                        {
                            "answers": {
                                "answer": {
                                    "_id": "0",
                                    "_caption": "До 8. Контроллер поддерживает номера разделов в диапазоне 1 - 8."
                                }
                            },
                            "_id": "3",
                            "_caption": "Сколько можно создать разделов?"
                        },
                        {
                            "answers": {
                                "answer": {
                                    "_id": "0",
                                    "_caption": "Контроллер работает со всеми провайдерами проводного интернета и операторами связи GSM, причем для установления связи с сервером достаточны скорости GPRS-интернета(2G)"
                                }
                            },
                            "_id": "4",
                            "_caption": "С какими операторами работает контроллер?"
                        }
                    ]
                },
                "_id": "2",
                "_caption": "3. Характеристики системы"
            },
            {
                "questions": {
                    "question": [
                        {
                            "answers": {
                                "answer": {
                                    "_id": "0",
                                    "_caption": "Для получения push-уведомлений необходима работа фоновых сервисов приложения. В случае, если на вашем устройстве их работа по той или иной прчине блокируется, push-уведомления могут не приходить. Причиной этому могут быть сторонние или предустановленные программы оптимизаторы, антивирусы и т.д. Ниже описаны возможные случаи отключения сервисов установленными приложениями на различных устройствах. Если вашего телефона нет в списке, обратитесь в службу технической поддержки 83462555333"
                                }
                            },
                            "_id": "0",
                            "_caption": "Что делать, если не приходят push-уведомления?"
                        },
                        {
                            "answers": {
                                "answer": {
                                    "_id": "0",
                                    "_caption": "Убедитесь в правильности ввода или считывания сканером мобильного устройства серийного номера контроллера. Серийный номер состоит из 12 цифр и расположенный на специальной наклейке на печатной плате устройства. При использовании встроенного сканера мобильного устройства штрих-код должен быть хорошо освещен и размещен в центре экрана или введите вручную."
                                }
                            },
                            "_id": "1",
                            "_caption": "Не добавляется контроллер (объект)."
                        },
                        {
                            "answers": {
                                "answer": [
                                    {
                                        "_id": "0",
                                        "_caption": "- Убедитесь в наличии надежной интернет связи мобильного устройства и контроллера с облаком, нижний индикатор должен светиться или мигать зеленым светом."
                                    },
                                    {
                                        "_id": "1",
                                        "_caption": "- Извлеките батарейку и убедитесь, что на регистрируемом датчике установлен «режим 2» и выбранная литера. Проконтролируйте, что после нажатия в приложении кнопки «Добавить устройство» средний индикатор на контроллере переходит в режим регистрации: частое чередование красного и зеленого свечения. В момент, когда он начинает мигать, установите, соблюдая полярность, батарейку в датчика. Убедитесь, что светодиодный индикатор датчика загорелся на несколько секунд. Ожидайте в течении 1 минуты появление в приложении всплывающего сообщения об успешном добавлении датчика."
                                    }
                                ]
                            },
                            "_id": "2",
                            "_caption": "Не добавляется датчик."
                        },
                        {
                            "answers": {
                                "answer": [
                                    {
                                        "_id": "0",
                                        "_caption": "1. Проверьте, что элемент питания из комплекта поставки или соответствует паспорту устройства."
                                    },
                                    {
                                        "_id": "1",
                                        "_caption": "2. Проверьте, что батарейка установлена с соблюдением полярности."
                                    },
                                    {
                                        "_id": "2",
                                        "_caption": "3. Возьмите батарейку пальцами и произведите серию быстрых не сильных ударов дном о твердую поверхность не повреждая батарейку. Если это не поможет можно кратковременно на 1-2 сек. замкните батарейку."
                                    },
                                    {
                                        "_id": "3",
                                        "_caption": "4. Попробуйте использовать другой экземпляр батарейки."
                                    }
                                ]
                            },
                            "_id": "3",
                            "_caption": "При установке батарейки индикатор датчика никак не реагирует."
                        },
                        {
                            "answers": {
                                "answer": [
                                    {
                                        "_id": "0",
                                        "_caption": "1. АКБ предназначена для резервирования питания контроллера только при работе через SIM-карты. Рекомендуется установка SIM-карты."
                                    },
                                    {
                                        "_id": "1",
                                        "_caption": "2. Возможно, что АКБ разряжен или не успел зарядиться. "
                                    }
                                ]
                            },
                            "_id": "4",
                            "_caption": "Почему при отключении адаптера питания и установленном АКБ, контроллер теряет связь с облаком?"
                        },
                        {
                            "answers": {
                                "answer": {
                                    "_id": "0",
                                    "_caption": "Для исключения сообщений о пропадании связанных с переменным качеством каналов связи, сообщение о потери связи с объектом выдается через 10 минут отсутствия ответов от объекта. Потеря связи по одному каналу из двух выдается мгновенно."
                                }
                            },
                            "_id": "5",
                            "_caption": "Почему при отключении интернета и GSM нет сигнала о потери связи с объектом?"
                        },
                        {
                            "answers": {
                                "answer": {
                                    "_id": "0",
                                    "_caption": "Потеря связи с объектом формируется через 10 минут. За это время контроллер ожидает восстановление связи, т.к. потеря может быть кратковременной. "
                                }
                            },
                            "_id": "6",
                            "_caption": "Почему при отключении роутера и изъятия SIM-карты объект показывает только проблему проводного подключения, а потерю связи не фиксирует?"
                        }
                    ]
                },
                "_id": "3",
                "_caption": "4. Решение возможных проблем"
            },
            {
                "questions": {
                    "question": [
                        {
                            "answers": {
                                "answer": [
                                    {
                                        "_id": "0",
                                        "_caption": "Приобрести дополнительные датчики вы можете в офисе или на официальном сайте "
                                    },
                                    {
                                        "_id": "1",
                                        "_caption": "ip-dom.tele-plus.ru",
                                        "_link": "http://ip-dom.tele-plus.ru/"
                                    }
                                ]
                            },
                            "_id": "0",
                            "_caption": "Где купить дополнительные датчики?"
                        },
                        {
                            "answers": {
                                "answer": {
                                    "_id": "0",
                                    "_caption": "Под разделом понимается выделенный датчик или группа датчиков. Как правило, раздел – рубеж охраны (периметр, объем, помещение, вход и т.п.). Все датчики должны находиться в разделах."
                                }
                            },
                            "_id": "1",
                            "_caption": "Что такое раздел?"
                        },
                        {
                            "answers": {
                                "answer": {
                                    "_id": "0",
                                    "_caption": "Функция позволяет передать управление и ответственность за охраняемый объект доверенному человеку, использующему мобильное приложение."
                                }
                            },
                            "_id": "2",
                            "_caption": "Что такое Делегирование?"
                        }
                    ]
                },
                "_id": "4",
                "_caption": "5. Другое"
            },
            {
                "questions": {
                    "question": {
                        "answers": {
                            "answer": {
                                "_id": "0",
                                "_caption": "Проблема с работой сервиса на устройствах Xiaomi Redmi Note 3 возникает из-за запрета на автозапуск фоновых приложений системной утилитой 'Сервис'. Для нормального функционирования приложения надо его добавить в разрешенные для автозапуска через данную утилиту. Для этого зайдите в системную утилиту 'Сервис' → 'Управление автозапуском' и добавьте приложение в список с разрешенным автозапуском."
                            }
                        },
                        "_id": "1",
                        "_caption": "Xiaomi Redmi Note 3"
                    }
                },
                "_id": "5",
                "_caption": "6. Устройства"
            }
    ]
}
