{
  "inputTypes": [
    {
      "id": 1,
      "title": "Zona cableada",
      "icons": [
        "n_image_wired_input_guard_list_selector",
        "n_image_wired_input_guard_main_selector",
        "n_image_wired_input_guard_big_selector"
      ],
      "detectorTypes": [
        {
          "id": 2,
          "title": "Alarma contra intrusión manual",
          "sectionMask": "3",
          "sectionDefault": 2,
          "isDefaultDetector": 0,
          "alarmTypes": [
            {
              "id": 10,
              "title": "Alarma manual",
              "isDefaultAlarm": 1,
              "icons": [
                "n_image_cd_alarm_manual_list_selector",
                "n_image_cd_alarm_manual_main_selector",
                "n_image_cd_alarm_manual_big_selector"
              ]
            }
          ]
        },
        {
          "id": 3,
          "title": "Alarma médica",
          "sectionMask": "3",
          "sectionDefault": 5,
          "isDefaultDetector": 0,
          "alarmTypes": [
            {
              "id": 10,
              "title": "Alarma manual médica",
              "isDefaultAlarm": 1,
              "icons": [
                "n_image_cd_medical_manual_list_selector",
                "n_image_cd_medical_manual_main_selector",
                "n_image_cd_medical_manual_big_selector"
              ]
            }
          ]
        },
        {
          "id": 4,
          "title": "Alarma contra intrsuión automática system",
          "sectionMask": "3",
          "sectionDefault": 1,
          "isDefaultDetector": 1,
          "alarmTypes": [
            {
              "id": 13,
              "title": "Exterior",
              "isDefaultAlarm": 0,
              "icons": [
                "n_image_cd_guard_exterior_list_selector",
                "n_image_cd_guard_exterior_main_selector",
                "n_image_cd_guard_exterior_big_selector"
              ]
            },
            {
              "id": 14,
              "title": "Interior",
              "isDefaultAlarm": 0,
              "icons": [
                "n_image_cd_guard_interior_list_selector",
                "n_image_cd_guard_interior_main_selector",
                "n_image_cd_guard_interior_big_selector"
              ]
            },
            {
              "id": 15,
              "title": "Entrance",
              "isDefaultAlarm": 1,
              "icons": [
                "n_image_cd_guard_entrance_list_selector",
                "n_image_cd_guard_entrance_main_selector",
                "n_image_cd_guard_entrance_big_selector"
              ]
            },
            {
              "id": 16,
              "title": "Intrusión",
              "isDefaultAlarm": 0,
              "icons": [
                "n_image_cd_guard_enter_list_selector",
                "n_image_cd_guard_enter_main_selector",
                "n_image_cd_guard_enter_big_selector"
              ]
            },
            {
              "id": 25,
              "title": "Movimiento of a construction",
              "isDefaultAlarm": 0,
              "icons": [
                "n_image_cd_guard_travel_list_selector",
                "n_image_cd_guard_travel_main_selector",
                "n_image_cd_guard_travel_big_selector"
              ]
            },
            {
              "id": 32,
              "title": "Apertura de ventana",
              "isDefaultAlarm": 0,
              "icons": [
                "n_image_cd_guard_window_open_list_selector",
                "n_image_cd_guard_window_open_main_selector",
                "n_image_cd_guard_window_open_big_selector"
              ]
            },
            {
              "id": 33,
              "title": "Apertura de puerta",
              "isDefaultAlarm": 0,
              "icons": [
                "n_image_cd_guard_door_open_list_selector",
                "n_image_cd_guard_door_open_main_selector",
                "n_image_cd_guard_door_open_big_selector"
              ]
            },
            {
              "id": 34,
              "title": "Apertura de la caja fuerte",
              "isDefaultAlarm": 0,
              "icons": [
                "n_image_cd_guard_vault_open_list_selector",
                "n_image_cd_guard_vault_open_main_selector",
                "n_image_cd_guard_vault_open_big_selector"
              ]
            },
            {
              "id": 35,
              "title": "Rotura de vidrio",
              "isDefaultAlarm": 0,
              "icons": [
                "n_image_cd_guard_window_breach_list_selector",
                "n_image_cd_guard_window_breach_main_selector",
                "n_image_cd_guard_window_breach_big_selector"
              ]
            },
            {
              "id": 36,
              "title": "Rotura de puerta",
              "isDefaultAlarm": 0,
              "icons": [
                "n_image_cd_guard_door_breach_list_selector",
                "n_image_cd_guard_door_breach_main_selector",
                "n_image_cd_guard_door_breach_big_selector"
              ]
            },
            {
              "id": 37,
              "title": "Rotura de la caja fuerte",
              "isDefaultAlarm": 0,
              "icons": [
                "n_image_cd_guard_vault_breach_list_selector",
                "n_image_cd_guard_vault_breach_main_selector",
                "n_image_cd_guard_vault_breach_big_selector"
              ]
            },
            {
              "id": 38,
              "title": "Cruzamiento del perímetro",
              "isDefaultAlarm": 0,
              "icons": [
                "n_image_cd_guard_perimeter_cross_list_selector",
                "n_image_cd_guard_perimeter_cross_main_selector",
                "n_image_cd_guard_perimeter_cross_big_selector"
              ]
            },
            {
              "id": 39,
              "title": "Movimiento en área protegida",
              "isDefaultAlarm": 0,
              "icons": [
                "n_image_cd_guard_area_move_list_selector",
                "n_image_cd_guard_area_move_main_selector",
                "n_image_cd_guard_area_move_big_selector"
              ]
            }
          ]
        },
        {
          "id": 5,
          "title": "Alarma tecnológica system",
          "sectionMask": "16",
          "sectionDefault": 5,
          "isDefaultDetector": 0,
          "alarmTypes": [
            {
              "id": 22,
              "title": "Fuga de humo",
              "isDefaultAlarm": 0,
              "icons": [
                "n_image_cd_tech_gas_list_selector",
                "n_image_cd_tech_gas_main_selector",
                "n_image_cd_tech_gas_big_selector"
              ]
            },
            {
              "id": 23,
              "title": "Fuga de agua",
              "isDefaultAlarm": 1,
              "icons": [
                "n_image_cd_tech_flood_list_selector",
                "n_image_cd_tech_flood_main_selector",
                "n_image_cd_tech_flood_big_selector"
              ]
            }
          ]
        },
        {
          "id": 6,
          "title": "Equipo de telemetría",
          "sectionMask": "16",
          "sectionDefault": 5,
          "isDefaultDetector": 0,
          "alarmTypes": [
            {
              "id": 18,
              "title": "Descenso de temperatura",
              "isDefaultAlarm": 0,
              "icons": [
                "n_image_cd_tele_cold_list_selector",
                "n_image_cd_tele_cold_main_selector",
                "n_image_cd_tele_cold_big_selector"
              ]
            },
            {
              "id": 19,
              "title": "Aumento de temperatura",
              "isDefaultAlarm": 0,
              "icons": [
                "n_image_cd_tele_heat_list_selector",
                "n_image_cd_tele_heat_main_selector",
                "n_image_cd_tele_heat_big_selector"
              ]
            }
          ]
        }
      ]
    },
    {
      "id": 2,
      "title": "Zona cableada de fuego",
      "icons": [
        "n_image_wired_input_fire_list_selector",
        "n_image_wired_input_fire_main_selector",
        "n_image_wired_input_fire_big_selector"
      ],
      "detectorTypes": [
        {
          "id": 1,
          "title": "Alarma de incendio",
          "sectionMask": "4",
          "sectionDefault": 3,
          "isDefaultDetector": 1,
          "alarmTypes": [
            {
              "id": 20,
              "title": "Humo",
              "isDefaultAlarm": 1,
              "icons": [
                "n_image_cd_fire_smoke_list_selector",
                "n_image_cd_fire_smoke_main_selector",
                "n_image_cd_fire_smoke_big_selector"
              ]
            },
            {
              "id": 21,
              "title": "Fuego",
              "isDefaultAlarm": 0,
              "icons": [
                "n_image_cd_fire_fire_list_selector",
                "n_image_cd_fire_fire_main_selector",
                "n_image_cd_fire_fire_big_selector"
              ]
            }
          ]
        }
      ]
    },
    {
      "id": 3,
      "title": "Zona incendio con doble disparo",
      "icons": [
        "n_image_input_wire_fire_list_selector",
        "n_image_input_wire_fire_main_selector",
        "n_image_input_wire_fire_big_selector"
      ],
      "detectorTypes": [
        {
          "id": 1,
          "title": "Alarma de incendio",
          "sectionMask": "4",
          "sectionDefault": 3,
          "isDefaultDetector": 1,
          "alarmTypes": [
            {
              "id": 20,
              "title": "Humo",
              "isDefaultAlarm": 1,
              "icons": [
                "n_image_cd_fire_smoke_list_selector",
                "n_image_cd_fire_smoke_main_selector",
                "n_image_cd_fire_smoke_big_selector"
              ]
            },
            {
              "id": 21,
              "title": "Fuego",
              "isDefaultAlarm": 0,
              "icons": [
                "n_image_cd_fire_fire_list_selector",
                "n_image_cd_fire_fire_main_selector",
                "n_image_cd_fire_fire_big_selector"
              ]
            }
          ]
        }
      ]
    },
    {
      "id": 4,
      "title": "Indicador de llegada del grupo"
    }
  ],
  "outputTypes": [
    {
      "id": 14,
      "title": "Anunciador de luz y sonido",
      "icons": [
        "n_image_siren_list_selector",
        "n_image_siren_main_selector",
        "n_image_siren_big_selector"
      ]
    },
    {
      "id": 15,
      "title": "Alarma indicator",
      "icons": [
        "n_image_lamp_list_selector",
        "n_image_lamp_main_selector",
        "n_image_lamp_big_selector"
      ]
    }
  ],
  "zoneTypes": [
    {
      "id": 1,
      "title": "Detector de fugas de agua",
      "subTitle": "Detector de fugas de agua Astra-361 ver. RF",
      "img": "astra_361",
      "icons": [
        "n_image_astra_361_list_selector",
        "n_image_astra_361_main_selector",
        "n_image_astra_361_big_selector"
      ],
      "detectorTypes": [
        {
          "id": 5,
          "title": "Alarma tecnológica system",
          "sectionMask": "16",
          "sectionDefault": 5,
          "isDefaultDetector": 1,
          "alarmTypes": [
            {
              "id": 23,
              "title": "Fuga de agua",
              "isDefaultAlarm": 1,
              "icons": [
                "n_image_cd_tech_flood_list_selector",
                "n_image_cd_tech_flood_main_selector",
                "n_image_cd_tech_flood_big_selector"
              ]
            }
          ]
        }
      ]
    },
    {
      "id": 3,
      "title": "Detector combinado GB (canal 1) + PIR (canal 2)",
      "subTitle": "Detector combinado GB (canal 1) + PIR (canal 2)",
      "img": "astra_8",
      "icons": [
        "n_image_astra_8_list_selector",
        "n_image_astra_8_main_selector",
        "n_image_astra_8_big_selector"
      ],
      "detectorTypes": [
        {
          "id": 4,
          "title": "Alarma contra intrsuión automática system",
          "sectionMask": "3",
          "sectionDefault": 1,
          "isDefaultDetector": 1,
          "alarmTypes": [
            {
              "id": 13,
              "title": "Exterior",
              "isDefaultAlarm": 0,
              "icons": [
                "n_image_cd_guard_exterior_list_selector",
                "n_image_cd_guard_exterior_main_selector",
                "n_image_cd_guard_exterior_big_selector"
              ]
            },
            {
              "id": 14,
              "title": "Interior",
              "isDefaultAlarm": 1,
              "icons": [
                "n_image_cd_guard_interior_list_selector",
                "n_image_cd_guard_interior_main_selector",
                "n_image_cd_guard_interior_big_selector"
              ]
            },
            {
              "id": 15,
              "title": "Entrance",
              "isDefaultAlarm": 0,
              "icons": [
                "n_image_cd_guard_entrance_list_selector",
                "n_image_cd_guard_entrance_main_selector",
                "n_image_cd_guard_entrance_big_selector"
              ]
            },
            {
              "id": 16,
              "title": "Intrusión",
              "isDefaultAlarm": 0,
              "icons": [
                "n_image_cd_guard_enter_list_selector",
                "n_image_cd_guard_enter_main_selector",
                "n_image_cd_guard_enter_big_selector"
              ]
            },
            {
              "id": 35,
              "title": "Rotura de puerta",
              "isDefaultAlarm": 0,
              "icons": [
                "n_image_cd_guard_door_breach_list_selector",
                "n_image_cd_guard_door_breach_main_selector",
                "n_image_cd_guard_door_breach_big_selector"
              ]
            },
            {
              "id": 36,
              "title": "Rotura de vidrio",
              "isDefaultAlarm": 0,
              "icons": [
                "n_image_cd_guard_window_breach_list_selector",
                "n_image_cd_guard_window_breach_main_selector",
                "n_image_cd_guard_window_breach_big_selector"
              ]
            },
            {
              "id": 37,
              "title": "Rotura de la caja fuerte",
              "isDefaultAlarm": 0,
              "icons": [
                "n_image_cd_guard_vault_breach_list_selector",
                "n_image_cd_guard_vault_breach_main_selector",
                "n_image_cd_guard_vault_breach_big_selector"
              ]
            },
            {
              "id": 38,
              "title": "Cruze del perímetro",
              "isDefaultAlarm": 0,
              "icons": [
                "n_image_cd_guard_perimeter_cross_list_selector",
                "n_image_cd_guard_perimeter_cross_main_selector",
                "n_image_cd_guard_perimeter_cross_big_selector"
              ]
            },
            {
              "id": 39,
              "title": "Movimiento en área protegida",
              "isDefaultAlarm": 0,
              "icons": [
                "n_image_cd_guard_area_move_list_selector",
                "n_image_cd_guard_area_move_main_selector",
                "n_image_cd_guard_area_move_big_selector"
              ]
            }
          ]
        }
      ]
    },
    {
      "id": 4,
      "title": "Detector de fugas de agua",
      "subTitle": "Detector de fugas de agua Astra-361 ver. RF",
      "img": "astra_361",
      "icons": [
        "n_image_astra_361_list_selector",
        "n_image_astra_361_main_selector",
        "n_image_astra_361_big_selector"
      ],
      "detectorTypes": [
        {
          "id": 5,
          "title": "Alarma tecnológica system",
          "sectionMask": "16",
          "sectionDefault": 5,
          "isDefaultDetector": 1,
          "alarmTypes": [
            {
              "id": 23,
              "title": "Fuga de agua",
              "isDefaultAlarm": 1,
              "icons": [
                "n_image_cd_tech_flood_list_selector",
                "n_image_cd_tech_flood_main_selector",
                "n_image_cd_tech_flood_big_selector"
              ]
            }
          ]
        }
      ]
    },
    {
      "id": 5,
      "title": "Detector de temperatura",
      "subTitle": "Detector de temperatura Astra-3731",
      "img": "astra_3731",
      "icons": [
        "n_image_astra_3731_list_selector",
        "n_image_astra_3731_main_selector",
        "n_image_astra_3731_big_selector"
      ],
      "detectorTypes": [
        {
          "id": 1,
          "title": "Alarma de incendio",
          "sectionMask": "4",
          "sectionDefault": 3,
          "isDefaultDetector": 0,
          "alarmTypes": [
            {
              "id": 19,
              "title": "Sobrecalentamiento (fuego)",
              "isDefaultAlarm": 0,
              "icons": [
                "n_image_cd_fire_heat_list_selector",
                "n_image_cd_fire_heat_main_selector",
                "n_image_cd_fire_heat_big_selector"
              ]
            },
            {
              "id": 21,
              "title": "Fuego",
              "isDefaultAlarm": 1,
              "icons": [
                "n_image_cd_fire_fire_list_selector",
                "n_image_cd_fire_fire_main_selector",
                "n_image_cd_fire_fire_big_selector"
              ]
            }
          ]
        },
        {
          "id": 3,
          "title": "Alarma médica",
          "sectionMask": "2",
          "sectionDefault": 5,
          "isDefaultDetector": 0,
          "alarmTypes": [
            {
              "id": 18,
              "title": "Hypothermia (médica)",
              "isDefaultAlarm": 1,
              "icons": [
                "n_image_cd_medical_cold_list_selector",
                "n_image_cd_medical_cold_main_selector",
                "n_image_cd_medical_cold_big_selector"
              ]
            },
            {
              "id": 19,
              "title": "Sobrecalentamiento (médica)",
              "isDefaultAlarm": 0,
              "icons": [
                "n_image_cd_medical_heat_list_selector",
                "n_image_cd_medical_heat_main_selector",
                "n_image_cd_medical_heat_big_selector"
              ]
            }
          ]
        },
        {
          "id": 5,
          "title": "Alarma tecnológica system",
          "sectionMask": "2",
          "sectionDefault": 5,
          "isDefaultDetector": 0,
          "alarmTypes": [
            {
              "id": 18,
              "title": "Hipotermia (tecnológica)",
              "isDefaultAlarm": 1,
              "icons": [
                "n_image_cd_tech_cold_list_selector",
                "n_image_cd_tech_cold_main_selector",
                "n_image_cd_tech_cold_big_selector"
              ]
            },
            {
              "id": 19,
              "title": "Sobrecalentamiento (tecnológica)",
              "isDefaultAlarm": 0,
              "icons": [
                "n_image_cd_tech_heat_list_selector",
                "n_image_cd_tech_heat_main_selector",
                "n_image_cd_tech_heat_big_selector"
              ]
            }
          ]
        },
        {
          "id": 6,
          "title": "Equipo de telemetría",
          "sectionMask": "16",
          "sectionDefault": 5,
          "isDefaultDetector": 1,
          "alarmTypes": [
            {
              "id": 18,
              "title": "Hipotermia (Equipo de telemetría)",
              "isDefaultAlarm": 1,
              "icons": [
                "n_image_cd_tele_cold_list_selector",
                "n_image_cd_tele_cold_main_selector",
                "n_image_cd_tele_cold_big_selector"
              ]
            },
            {
              "id": 19,
              "title": "Sobrecalentamiento (Equipo de telemetría)",
              "isDefaultAlarm": 0,
              "icons": [
                "n_image_cd_tele_heat_list_selector",
                "n_image_cd_tele_heat_main_selector",
                "n_image_cd_tele_heat_big_selector"
              ]
            }
          ]
        }
      ]
    },
    {
      "id": 7,
      "title": "Alarma",
      "subTitle": "Alarma manual",
      "img": "astra_3221",
      "icons": [
        "n_image_astra_3221_list_selector",
        "n_image_astra_3221_main_selector",
        "n_image_astra_3221_big_selector"
      ],
      "detectorTypes": [
        {
          "id": 2,
          "title": "Alarma contra intrusión manual",
          "sectionMask": "2",
          "sectionDefault": 2,
          "isDefaultDetector": 1,
          "alarmTypes": [
            {
              "id": 10,
              "title": "Alarma manual",
              "isDefaultAlarm": 1,
              "icons": [
                "n_image_cd_alarm_manual_list_selector",
                "n_image_cd_alarm_manual_main_selector",
                "n_image_cd_alarm_manual_big_selector"
              ]
            }
          ]
        },
        {
          "id": 3,
          "title": "Alarma médica",
          "sectionMask": "2",
          "sectionDefault": 5,
          "isDefaultDetector": 0,
          "alarmTypes": [
            {
              "id": 10,
              "title": "Alarma médica manual",
              "isDefaultAlarm": 1,
              "icons": [
                "n_image_cd_medical_manual_list_selector",
                "n_image_cd_medical_manual_main_selector",
                "n_image_cd_medical_manual_big_selector"
              ]
            }
          ]
        }
      ]
    },
    {
      "id": 8,
      "title": "Llavero",
      "subTitle": "Llavero Astra-RC",
      "img": "astra_rpdk",
      "icons": [
        "n_image_astra_rim_m_rpdk_list_selector",
        "n_image_astra_rim_m_rpdk_main_selector",
        "n_image_astra_rim_m_rpdk_big_selector"
      ],
      "detectorTypes": [
        {
          "id": 2,
          "title": "Alarma contra intrusión manual",
          "sectionMask": "2",
          "sectionDefault": 2,
          "isDefaultDetector": 1,
          "alarmTypes": [
            {
              "id": 10,
              "title": "Alarma manual",
              "isDefaultAlarm": 1,
              "icons": [
                "n_image_cd_alarm_manual_list_selector",
                "n_image_cd_alarm_manual_main_selector",
                "n_image_cd_alarm_manual_big_selector"
              ]
            }
          ]
        },
        {
          "id": 3,
          "title": "Alarma médica",
          "sectionMask": "2",
          "sectionDefault": 5,
          "isDefaultDetector": 0,
          "alarmTypes": [
            {
              "id": 10,
              "title": "Alarma médica manual",
              "isDefaultAlarm": 1,
              "icons": [
                "n_image_cd_medical_manual_list_selector",
                "n_image_cd_medical_manual_main_selector",
                "n_image_cd_medical_manual_big_selector"
              ]
            }
          ]
        }
      ]
    },
    {
      "id": 10,
      "title": "Detector de rotura de vidrio",
      "subTitle": "Detector de rotura de vidrio Astra-6131",
      "img": "astra_6131",
      "icons": [
        "n_image_astra_6131_list_selector",
        "n_image_astra_6131_main_selector",
        "n_image_astra_6131_big_selector"
      ],
      "detectorTypes": [
        {
          "id": 4,
          "title": "Alarma contra intrsuión automática system",
          "sectionMask": "3",
          "sectionDefault": 1,
          "isDefaultDetector": 1,
          "alarmTypes": [
            {
              "id": 16,
              "title": "Intrusión",
              "isDefaultAlarm": 0,
              "icons": [
                "n_image_cd_guard_enter_list_selector",
                "n_image_cd_guard_enter_main_selector",
                "n_image_cd_guard_enter_big_selector"
              ]
            },
            {
              "id": 35,
              "title": "Rotura de puerta",
              "isDefaultAlarm": 0,
              "icons": [
                "n_image_cd_guard_door_breach_list_selector",
                "n_image_cd_guard_door_breach_main_selector",
                "n_image_cd_guard_door_breach_big_selector"
              ]
            },
            {
              "id": 36,
              "title": "Rotura de vidrio",
              "isDefaultAlarm": 1,
              "icons": [
                "n_image_cd_guard_window_breach_list_selector",
                "n_image_cd_guard_window_breach_main_selector",
                "n_image_cd_guard_window_breach_big_selector"
              ]
            },
            {
              "id": 37,
              "title": "Rotura de la caja fuerte",
              "isDefaultAlarm": 0,
              "icons": [
                "n_image_cd_guard_vault_breach_list_selector",
                "n_image_cd_guard_vault_breach_main_selector",
                "n_image_cd_guard_vault_breach_big_selector"
              ]
            }
          ]
        }
      ]
    },
    {
      "id": 11,
      "title": "Detector de apertura",
      "subTitle": "Detector de contacto magnético Astra-3321",
      "img": "astra_3321",
      "icons": [
        "n_image_astra_3321_list_selector",
        "n_image_astra_3321_main_selector",
        "n_image_astra_3321_big_selector"
      ],
      "detectorTypes": [
        {
          "id": 1,
          "title": "Alarma de incendio",
          "sectionMask": "4",
          "sectionDefault": 3,
          "isDefaultDetector": 0,
          "alarmTypes": [
            {
              "id": 10,
              "title": "Alarma manual de incendios",
              "isDefaultAlarm": 0,
              "icons": [
                "n_image_cd_fire_manual_list_selector",
                "n_image_cd_fire_manual_main_selector",
                "n_image_cd_fire_manual_big_selector"
              ]
            },
            {
              "id": 20,
              "title": "Humo (incendio)",
              "isDefaultAlarm": 1,
              "icons": [
                "n_image_cd_fire_smoke_list_selector",
                "n_image_cd_fire_smoke_main_selector",
                "n_image_cd_fire_smoke_big_selector"
              ]
            },
            {
              "id": 21,
              "title": "Fuego (incendio)",
              "isDefaultAlarm": 0,
              "icons": [
                "n_image_cd_fire_fire_list_selector",
                "n_image_cd_fire_fire_main_selector",
                "n_image_cd_fire_fire_big_selector"
              ]
            }
          ]
        },
        {
          "id": 2,
          "title": "Alarma contra intrusión manual",
          "sectionMask": "2",
          "sectionDefault": 2,
          "isDefaultDetector": 0,
          "alarmTypes": [
            {
              "id": 10,
              "title": "Alarma manual",
              "isDefaultAlarm": 1,
              "icons": [
                "n_image_cd_alarm_manual_list_selector",
                "n_image_cd_alarm_manual_main_selector",
                "n_image_cd_alarm_manual_big_selector"
              ]
            }
          ]
        },
        {
          "id": 3,
          "title": "Alarma médica",
          "sectionMask": "19",
          "sectionDefault": 5,
          "isDefaultDetector": 0,
          "alarmTypes": [
            {
              "id": 10,
              "title": "Alarma médica manual",
              "isDefaultAlarm": 0,
              "icons": [
                "n_image_cd_medical_manual_list_selector",
                "n_image_cd_medical_manual_main_selector",
                "n_image_cd_medical_manual_big_selector"
              ]
            }
          ]
        },
        {
          "id": 4,
          "title": "Alarma contra intrsuión automática system",
          "sectionMask": "3",
          "sectionDefault": 1,
          "isDefaultDetector": 1,
          "alarmTypes": [
            {
              "id": 13,
              "title": "Exterior",
              "isDefaultAlarm": 0,
              "icons": [
                "n_image_cd_guard_exterior_list_selector",
                "n_image_cd_guard_exterior_main_selector",
                "n_image_cd_guard_exterior_big_selector"
              ]
            },
            {
              "id": 14,
              "title": "Interior",
              "isDefaultAlarm": 0,
              "icons": [
                "n_image_cd_guard_interior_list_selector",
                "n_image_cd_guard_interior_main_selector",
                "n_image_cd_guard_interior_big_selector"
              ]
            },
            {
              "id": 15,
              "title": "Entrance",
              "isDefaultAlarm": 1,
              "icons": [
                "n_image_cd_guard_entrance_list_selector",
                "n_image_cd_guard_entrance_main_selector",
                "n_image_cd_guard_entrance_big_selector"
              ]
            },
            {
              "id": 16,
              "title": "Intrusión",
              "isDefaultAlarm": 0,
              "icons": [
                "n_image_cd_guard_enter_list_selector",
                "n_image_cd_guard_enter_main_selector",
                "n_image_cd_guard_enter_big_selector"
              ]
            },
            {
              "id": 32,
              "title": "Apertura de ventana",
              "isDefaultAlarm": 0,
              "icons": [
                "n_image_cd_guard_window_open_list_selector",
                "n_image_cd_guard_window_open_main_selector",
                "n_image_cd_guard_window_open_big_selector"
              ]
            },
            {
              "id": 33,
              "title": "Apertura de puerta",
              "isDefaultAlarm": 0,
              "icons": [
                "n_image_cd_guard_door_open_list_selector",
                "n_image_cd_guard_door_open_main_selector",
                "n_image_cd_guard_door_open_big_selector"
              ]
            },
            {
              "id": 34,
              "title": "Apertura de la caja fuerte",
              "isDefaultAlarm": 0,
              "icons": [
                "n_image_cd_guard_vault_open_list_selector",
                "n_image_cd_guard_vault_open_main_selector",
                "n_image_cd_guard_vault_open_big_selector"
              ]
            },
            {
              "id": 35,
              "title": "Rotura de puerta",
              "isDefaultAlarm": 0,
              "icons": [
                "n_image_cd_guard_door_breach_list_selector",
                "n_image_cd_guard_door_breach_main_selector",
                "n_image_cd_guard_door_breach_big_selector"
              ]
            },
            {
              "id": 36,
              "title": "Rotura de vidrio",
              "isDefaultAlarm": 0,
              "icons": [
                "n_image_cd_guard_window_breach_list_selector",
                "n_image_cd_guard_window_breach_main_selector",
                "n_image_cd_guard_window_breach_big_selector"
              ]
            },
            {
              "id": 37,
              "title": "Rotura de la caja fuerte",
              "isDefaultAlarm": 0,
              "icons": [
                "n_image_cd_guard_vault_breach_list_selector",
                "n_image_cd_guard_vault_breach_main_selector",
                "n_image_cd_guard_vault_breach_big_selector"
              ]
            },
            {
              "id": 38,
              "title": "Cruzamiento del perímetro",
              "isDefaultAlarm": 0,
              "icons": [
                "n_image_cd_guard_perimeter_cross_list_selector",
                "n_image_cd_guard_perimeter_cross_main_selector",
                "n_image_cd_guard_perimeter_cross_big_selector"
              ]
            },
            {
              "id": 39,
              "title": "Movimiento en área protegida",
              "isDefaultAlarm": 0,
              "icons": [
                "n_image_cd_guard_area_move_list_selector",
                "n_image_cd_guard_area_move_main_selector",
                "n_image_cd_guard_area_move_big_selector"
              ]
            }
          ]
        },
        {
          "id": 5,
          "title": "Alarma tecnológica system",
          "sectionMask": "16",
          "sectionDefault": 5,
          "isDefaultDetector": 0,
          "alarmTypes": [
            {
              "id": 10,
              "title": "Alarma manual tecnológica",
              "isDefaultAlarm": 0,
              "icons": [
                "n_image_cd_tech_manual_list_selector",
                "n_image_cd_tech_manual_main_selector",
                "n_image_cd_tech_manual_big_selector"
              ]
            },
            {
              "id": 20,
              "title": "Humo (tecnológica)",
              "isDefaultAlarm": 0,
              "icons": [
                "n_image_cd_tech_smoke_list_selector",
                "n_image_cd_tech_smoke_main_selector",
                "n_image_cd_tech_smoke_big_selector"
              ]
            },
            {
              "id": 22,
              "title": "Fuga de gas",
              "isDefaultAlarm": 0,
              "icons": [
                "n_image_cd_tech_gas_list_selector",
                "n_image_cd_tech_gas_main_selector",
                "n_image_cd_tech_gas_big_selector"
              ]
            },
            {
              "id": 23,
              "title": "Fuga de agua",
              "isDefaultAlarm": 0,
              "icons": [
                "n_image_cd_tech_flood_list_selector",
                "n_image_cd_tech_flood_main_selector",
                "n_image_cd_tech_flood_big_selector"
              ]
            },
            {
              "id": 25,
              "title": "Movimiento de estructura (tecnológica)",
              "isDefaultAlarm": 0
            }
          ]
        },
        {
          "id": 6,
          "title": "Equipo de telemetría",
          "sectionMask": "16",
          "sectionDefault": 5,
          "isDefaultDetector": 0,
          "alarmTypes": [
            {
              "id": 10,
              "title": "Alarma manual telemetrica",
              "isDefaultAlarm": 0,
              "icons": [
                "n_image_cd_tele_manual_list_selector",
                "n_image_cd_tele_manual_main_selector",
                "n_image_cd_tele_manual_big_selector"
              ]
            },
            {
              "id": 18,
              "title": "Descenso de temperatura",
              "isDefaultAlarm": 0,
              "icons": [
                "n_image_cd_tele_cold_list_selector",
                "n_image_cd_tele_cold_main_selector",
                "n_image_cd_tele_cold_big_selector"
              ]
            },
            {
              "id": 19,
              "title": "Aumento de temperatura",
              "isDefaultAlarm": 0,
              "icons": [
                "n_image_cd_tele_heat_list_selector",
                "n_image_cd_tele_heat_main_selector",
                "n_image_cd_tele_heat_big_selector"
              ]
            }
          ]
        }
      ]
    },
    {
      "id": 12,
      "title": "Detector de movimiento",
      "subTitle": "Detector de movimiento Astra-5121",
      "img": "astra_5131",
      "icons": [
        "n_image_astra_5121_list_selector",
        "n_image_astra_5121_main_selector",
        "n_image_astra_5121_big_selector"
      ],
      "detectorTypes": [
        {
          "id": 4,
          "title": "Alarma contra intrsuión automática",
          "sectionMask": "3",
          "sectionDefault": 1,
          "isDefaultDetector": 1,
          "alarmTypes": [
            {
              "id": 13,
              "title": "Exterior",
              "isDefaultAlarm": 0,
              "icons": [
                "n_image_cd_guard_exterior_list_selector",
                "n_image_cd_guard_exterior_main_selector",
                "n_image_cd_guard_exterior_big_selector"
              ]
            },
            {
              "id": 14,
              "title": "Interior",
              "isDefaultAlarm": 1,
              "icons": [
                "n_image_cd_guard_interior_list_selector",
                "n_image_cd_guard_interior_main_selector",
                "n_image_cd_guard_interior_big_selector"
              ]
            },
            {
              "id": 15,
              "title": "Entrance",
              "isDefaultAlarm": 0,
              "icons": [
                "n_image_cd_guard_entrance_list_selector",
                "n_image_cd_guard_entrance_main_selector",
                "n_image_cd_guard_entrance_big_selector"
              ]
            },
            {
              "id": 16,
              "title": "Intrusión",
              "isDefaultAlarm": 0,
              "icons": [
                "n_image_cd_guard_enter_list_selector",
                "n_image_cd_guard_enter_main_selector",
                "n_image_cd_guard_enter_big_selector"
              ]
            },
            {
              "id": 39,
              "title": "Movimiento en área protegida",
              "isDefaultAlarm": 0,
              "icons": [
                "n_image_cd_guard_area_move_list_selector",
                "n_image_cd_guard_area_move_main_selector",
                "n_image_cd_guard_area_move_big_selector"
              ]
            }
          ]
        }
      ]
    },
    {
      "id": 13,
      "title": "Detector de humo",
      "subTitle": "Detector de humo Astra-421 ver. RF",
      "img": "astra_421",
      "icons": [
        "n_image_astra_421_rk_list_selector",
        "n_image_astra_421_rk_main_selector",
        "n_image_astra_421_rk_big_selector"
      ],
      "detectorTypes": [
        {
          "id": 1,
          "title": "Alarma de incendio",
          "sectionMask": "4",
          "sectionDefault": 3,
          "isDefaultDetector": 1,
          "alarmTypes": [
            {
              "id": 20,
              "title": "Humo",
              "isDefaultAlarm": 1,
              "icons": [
                "n_image_cd_fire_smoke_list_selector",
                "n_image_cd_fire_smoke_main_selector",
                "n_image_cd_fire_smoke_big_selector"
              ]
            }
          ]
        }
      ]
    },
    {
      "id": 15,
      "title": "Teclado",
      "subTitle": "Teclado Astra-8121",
      "img": "ic_astra_8121",
      "icons": [
        "n_image_astra_8121_list_selector",
        "n_image_astra_8121_main_selector",
        "n_image_astra_8121_big_selector"
      ],
      "detectorTypes": [
        {
          "id": 11,
          "title": "Teclado",
          "sectionDefault": 0,
          "isDefaultDetector": 1
        }
      ]
    },
    {
      "id": 2331,
      "title": "Sirena",
      "subTitle": "Sirena Astra-2331",
      "img": "astra_2331",
      "icons": [
        "n_image_astra_2331_list_selector",
        "n_image_astra_2331_main_selector",
        "n_image_astra_2331_big_selector"
      ],
      "detectorTypes": [
        {
          "id": 25,
          "title": "Sirena",
          "sectionDefault": 0,
          "isDefaultDetector": 1
        }
      ]
    },
    {
      "id": 24,
      "title": "Teclado",
      "subTitle": "Teclado Astra-8121",
      "img": "astra_8121",
      "icons": [
        "n_image_astra_8121_list_selector",
        "n_image_astra_8121_main_selector",
        "n_image_astra_8121_big_selector"
      ],
      "detectorTypes": [
        {
          "id": 11,
          "title": "Teclado",
          "sectionDefault": 0,
          "isDefaultDetector": 1
        }
      ]
    },
    {
      "id": 8121,
      "title": "Teclado",
      "subTitle": "Teclado Astra-8121",
      "img": "astra_8121",
      "icons": [
        "n_image_astra_8121_list_selector",
        "n_image_astra_8121_main_selector",
        "n_image_astra_8121_big_selector"
      ],
      "detectorTypes": [
        {
          "id": 11,
          "title": "Teclado",
          "sectionDefault": 0,
          "isDefaultDetector": 1
        }
      ]
    },
    {
      "id": 8131,
      "title": "Teclado",
      "subTitle": "Teclado Astra-8131",
      "img": "astra_8131",
      "icons": [
        "n_image_astra_8121_list_selector",
        "n_image_astra_8121_main_selector",
        "n_image_astra_8121_big_selector"
      ],
      "detectorTypes": [
        {
          "id": 16,
          "title": "Teclado",
          "sectionDefault": 0,
          "isDefaultDetector": 1
        }
      ]
    },
    {
      "id": 8531,
      "title": "Lector RFID",
      "subTitle": "Lector RFID Astra-8531",
      "img": "astra_8531",
      "detectorTypes": [
        {
          "id": 12,
          "title": "Lector de identificador real",
          "sectionDefault": 0,
          "isDefaultDetector": 1
        }
      ]
    },
    {
      "id": 8231,
      "title": "Radio relé",
      "subTitle": "Radio relé Astra-8231",
      "img": "astra_8231",
      "icons": [
        "n_image_astra_8231_list_selector",
        "n_image_astra_8231_main_selector",
        "n_image_astra_8231_big_selector"
      ]
    },
    {
      "id": 8731,
      "title": "Enchufe inteligente",
      "subTitle": "Enchufe inteligente Astra-8731",
      "img": "astra_8731",
      "icons": [
        "n_image_astra_8731_list_selector",
        "n_image_astra_8731_main_selector",
        "n_image_astra_8731_big_selector"
      ]
    },
    {
      "id": 421,
      "title": "Detector de humo",
      "subTitle": "Detector de humo Astra-421 ver. RF",
      "img": "astra_421rk2",
      "icons": [
        "n_image_astra_421_rk_list_selector",
        "n_image_astra_421_rk_main_selector",
        "n_image_astra_421_rk_big_selector"
      ],
      "detectorTypes": [
        {
          "id": 1,
          "title": "Alarma de incendio",
          "sectionMask": "4",
          "sectionDefault": 3,
          "isDefaultDetector": 1,
          "alarmTypes": [
            {
              "id": 20,
              "title": "Humo",
              "isDefaultAlarm": 1,
              "icons": [
                "n_image_cd_fire_smoke_list_selector",
                "n_image_cd_fire_smoke_main_selector",
                "n_image_cd_fire_smoke_big_selector"
              ]
            },
            {
              "id": 21,
              "title": "Fuego",
              "isDefaultAlarm": 0,
              "icons": [
                "n_image_cd_fire_fire_list_selector",
                "n_image_cd_fire_fire_main_selector",
                "n_image_cd_fire_fire_big_selector"
              ]
            }
          ]
        }
      ]
    },
    {
      "id": 431,
      "title": "Detector térmico",
      "subTitle": "Detector térmico Astra-431 ver. RF",
      "img": "astra_421rk2",
      "icons": [
        "n_image_astra_431_rk_list_selector",
        "n_image_astra_431_rk_main_selector",
        "n_image_astra_431_rk_big_selector"
      ],
      "detectorTypes": [
        {
          "id": 1,
          "title": "Alarma de incendio",
          "sectionMask": "4",
          "sectionDefault": 3,
          "isDefaultDetector": 1,
          "alarmTypes": [
            {
              "id": 19,
              "title": "Sobrecalentamiento (incendio)",
              "isDefaultAlarm": 1,
              "icons": [
                "n_image_cd_fire_heat_list_selector",
                "n_image_cd_fire_heat_main_selector",
                "n_image_cd_fire_heat_big_selector"
              ]
            },
            {
              "id": 21,
              "title": "Fuego",
              "isDefaultAlarm": 0,
              "icons": [
                "n_image_cd_fire_fire_list_selector",
                "n_image_cd_fire_fire_main_selector",
                "n_image_cd_fire_fire_big_selector"
              ]
            }
          ]
        }
      ]
    },
    {
      "id": 4511,
      "title": "Botón de incendio",
      "subTitle": "Botón de incendio Astra-4511",
      "img": "astra_4511",
      "icons": [
        "n_image_astra_4511_list_selector",
        "n_image_astra_4511_main_selector",
        "n_image_astra_4511_big_selector"
      ],
      "detectorTypes": [
        {
          "id": 1,
          "title": "Alarma de incendio",
          "sectionMask": "4",
          "sectionDefault": 3,
          "isDefaultDetector": 1,
          "alarmTypes": [
            {
              "id": 10,
              "title": "Alarma manual de incendios",
              "isDefaultAlarm": 1,
              "icons": [
                "n_image_cd_fire_manual_list_selector",
                "n_image_cd_fire_manual_main_selector",
                "n_image_cd_fire_manual_big_selector"
              ]
            },
            {
              "id": 20,
              "title": "Humo",
              "isDefaultAlarm": 1,
              "icons": [
                "n_image_cd_fire_smoke_list_selector",
                "n_image_cd_fire_smoke_main_selector",
                "n_image_cd_fire_smoke_big_selector"
              ]
            },
            {
              "id": 21,
              "title": "Fuego",
              "isDefaultAlarm": 0,
              "icons": [
                "n_image_cd_fire_fire_list_selector",
                "n_image_cd_fire_fire_main_selector",
                "n_image_cd_fire_fire_big_selector"
              ]
            }
          ]
        }
      ]
    }
  ]
}
