﻿{
  "selector": {
    "item": [
      {
        "app:state_update": "true",
        "app:state_alarm": "true",
        "android:drawable": "@drawable/ic_update_invert"
      },
      {
        "app:state_update": "true",
        "app:state_invert": "true",
        "android:drawable": "@drawable/ic_update_invert"
      },
      {
        "app:state_update": "true",
        "app:state_offline": "true",
        "android:drawable": "@drawable/ic_update_black"
      },
      {
        "app:state_update": "true",
        "app:state_black": "true",
        "android:drawable": "@drawable/ic_update_black"
      },
      {
        "app:state_update": "true",
        "android:drawable": "@drawable/ic_update"
      },
      {"android:drawable": "@android:color/transparent"}
    ]
  }
}