﻿{
  "selector": {
    "item": [
      {
        "app:state_error_socket": "true",
        "app:state_invert": "true",
        "android:drawable": "@drawable/ic_socket_error_invert"
      },
      {
        "app:state_error_socket": "true",
        "app:state_offline": "true",
        "android:drawable": "@drawable/ic_socket_error_offline"
      },
      {
        "app:state_error_socket": "true",
        "app:state_black": "true",
        "android:drawable": "@drawable/ic_socket_error_offline"
      },
      {
        "app:state_error_socket": "true",
        "android:drawable": "@drawable/ic_socket_error"
      },
      {
        "app:state_no_socket": "true",
        "app:state_invert": "true",
        "android:drawable": "@drawable/ic_socket_no_invert"
      },
      {
        "app:state_no_socket": "true",
        "app:state_offline": "true",
        "android:drawable": "@drawable/ic_socket_no_offline"
      },
      {
        "app:state_no_socket": "true",
        "app:state_black": "true",
        "android:drawable": "@drawable/ic_socket_no_offline"
      },
      {
        "app:state_no_socket": "true",
        "android:drawable": "@drawable/ic_socket_no"
      },
      {
        "app:state_invert": "true",
        "android:drawable": "@drawable/ic_socket_invert"
      },
      {
        "app:state_offline": "true",
        "android:drawable": "@drawable/ic_socket_offline"
      },
      {
        "app:state_black": "true",
        "android:drawable": "@drawable/ic_socket_offline"
      },
      {"android:drawable": "@drawable/ic_socket"}
    ]
  }
}