﻿{
  "selector": {
    "item": [
      {
        "app:state_arm": "true",
        "android:drawable": "@drawable/ic_armed_overlay"
      },
      {
        "app:state_partly_arm": "true",
        "android:drawable": "@drawable/ic_partly_armed_overlay"
      },
      {
        "app:state_disarm": "true",
        "android:drawable": "@drawable/ic_disarmed_overlay"
      },
      {
        "app:state_on": "true",
        "android:drawable": "@drawable/ic_on_overlay"
      },
      {
        "app:state_off": "true",
        "android:drawable": "@drawable/ic_off_overlay"
      },
      {
        "app:state_no_section_control": "true",
        "android:drawable": "@drawable/ic_no_section_control_overlay"
      },
      {
        "app:state_no_arm": "true",
        "android:drawable": "@android:color/transparent"
      },
      {"android:drawable": "@android:color/transparent"}
    ]
  }
}