﻿{
  "selector": {
    "item": [
      {
        "app:state_battery_high": "true",
        "app:state_invert": "true",
        "android:drawable": "@drawable/ic_battery_high_invert"
      },
      {
        "app:state_battery_high": "true",
        "app:state_offline": "true",
        "android:drawable": "@drawable/ic_battery_high_offline"
      },
      {
        "app:state_battery_high": "true",
        "app:state_black": "true",
        "android:drawable": "@drawable/ic_battery_high_offline"
      },
      {
        "app:state_battery_high": "true",
        "android:drawable": "@drawable/ic_battery_high"
      },
      {
        "app:state_battery_mid": "true",
        "app:state_invert": "true",
        "android:drawable": "@drawable/ic_battery_mid_invert"
      },
      {
        "app:state_battery_mid": "true",
        "app:state_offline": "true",
        "android:drawable": "@drawable/ic_battery_mid_offline"
      },
      {
        "app:state_battery_mid": "true",
        "app:state_black": "true",
        "android:drawable": "@drawable/ic_battery_mid_offline"
      },
      {
        "app:state_battery_mid": "true",
        "android:drawable": "@drawable/ic_battery_mid"
      },
      {
        "app:state_battery_low": "true",
        "app:state_invert": "true",
        "android:drawable": "@drawable/ic_battery_low_invert"
      },
      {
        "app:state_battery_low": "true",
        "app:state_offline": "true",
        "android:drawable": "@drawable/ic_battery_low_offline"
      },
      {
        "app:state_battery_low": "true",
        "app:state_black": "true",
        "android:drawable": "@drawable/ic_battery_low_offline"
      },
      {
        "app:state_battery_low": "true",
        "android:drawable": "@drawable/ic_battery_low"
      },
      {
        "app:state_battery_empty": "true",
        "app:state_invert": "true",
        "android:drawable": "@drawable/ic_battery_empty_invert"
      },
      {
        "app:state_battery_empty": "true",
        "app:state_offline": "true",
        "android:drawable": "@drawable/ic_battery_empty_offline"
      },
      {
        "app:state_battery_empty": "true",
        "app:state_black": "true",
        "android:drawable": "@drawable/ic_battery_empty_offline"
      },
      {
        "app:state_battery_empty": "true",
        "android:drawable": "@drawable/ic_battery_empty"
      },
      {
        "app:state_battery_no": "true",
        "app:state_invert": "true",
        "android:drawable": "@drawable/ic_battery_no_invert"
      },
      {
        "app:state_battery_no": "true",
        "app:state_offline": "true",
        "android:drawable": "@drawable/ic_battery_no_offline"
      },
      {
        "app:state_battery_no": "true",
        "app:state_black": "true",
        "android:drawable": "@drawable/ic_battery_no_offline"
      },
      {
        "app:state_battery_no": "true",
        "android:drawable": "@drawable/ic_battery_no"
      },
      {
        "app:state_battery_error": "true",
        "app:state_invert": "true",
        "android:drawable": "@drawable/ic_battery_error_invert"
      },
      {
        "app:state_battery_error": "true",
        "app:state_offline": "true",
        "android:drawable": "@drawable/ic_battery_error_offline"
      },
      {
        "app:state_battery_error": "true",
        "app:state_black": "true",
        "android:drawable": "@drawable/ic_battery_error_offline"
      },
      {
        "app:state_battery_error": "true",
        "android:drawable": "@drawable/ic_battery_error"
      },
      {
        "app:state_invert": "true",
        "android:drawable": "@drawable/ic_battery_invert"
      },
      {
        "app:state_offline": "true",
        "android:drawable": "@drawable/ic_battery_offline"
      },
      {
        "app:state_black": "true",
        "android:drawable": "@drawable/ic_battery_offline"
      },
      {"android:drawable": "@drawable/ic_battery"}
    ]
  }
}