﻿{
  "selector": {
    "item": [
      {
        "android:state_selected": "true",
        "android:drawable": "@drawable/ic_cd_tech_manual_list_i"
      },
      {
        "app:state_black": "true",
        "android:drawable": "@drawable/ic_cd_tech_manual_list_i"
      },
      {
        "app:state_invert": "true",
        "android:drawable": "@drawable/ic_cd_tech_manual_list_i"
      },
      {
        "app:state_pr": "true",
        "android:drawable": "@drawable/ic_cd_tech_manual_list_i"
      },
      {"android:drawable": "@drawable/ic_cd_tech_manual_list"}
    ]
  }
}