<svg xmlns="http://www.w3.org/2000/svg" width="46" height="51" viewBox="0 0 46 51">
    <g fill="none" fill-rule="evenodd">
        <path fill="#FF954D" d="M15.998 28.204c.421 0 .796.225 1.04.57 1.292 1.82 3.41 3 5.811 3 2.4 0 4.52-1.18 5.811-3 .244-.345.62-.57 1.04-.57h.004c6.072 0 10.994 4.923 10.994 10.994v5.017c0 1.015-.822 1.838-1.838 1.838H6.839C5.823 46.053 5 45.23 5 44.215v-5.017c0-6.071 4.923-10.994 10.996-10.994h.002z"/>
        <path stroke="#414042" stroke-linecap="round" stroke-linejoin="round" stroke-width="4.001" d="M22.85 22.85h0c-3.943 0-7.14-3.198-7.14-7.14v-3.57c0-3.943 3.197-7.14 7.14-7.14 3.943 0 7.14 3.197 7.14 7.14v3.57c0 3.942-3.197 7.14-7.14 7.14zM15.998 28.204c.421 0 .796.225 1.04.57 1.292 1.82 3.41 3 5.811 3 2.4 0 4.52-1.18 5.811-3 .244-.345.62-.57 1.04-.57h.004c6.072 0 10.994 4.923 10.994 10.994v5.017c0 1.015-.822 1.838-1.838 1.838H6.839C5.823 46.053 5 45.23 5 44.215v-5.017c0-6.071 4.923-10.994 10.996-10.994h.002z"/>
    </g>
</svg>
