{
  "images" : [
    {
      "filename" : "n_image_cd_guard_entrance_big_active_selector.png",
      "idiom" : "universal",
      "scale" : "1x"
    },
    {
      "filename" : "n_image_cd_guard_entrance_big_active_selector@2x.png",
      "idiom" : "universal",
      "scale" : "2x"
    },
    {
      "filename" : "n_image_cd_guard_entrance_big_active_selector@3x.png",
      "idiom" : "universal",
      "scale" : "3x"
    }
  ],
  "info" : {
    "author" : "xcode",
    "version" : 1
  }
}
