<svg xmlns="http://www.w3.org/2000/svg" width="36" height="36" viewBox="0 0 36 36">
    <g fill="none" fill-rule="evenodd" stroke="#3ABEFF" stroke-linecap="round" stroke-linejoin="round" stroke-width="1.3">
        <path d="M13.701 25.72c7.648-4.65 12.447.825 12.447.825C29.973 5.475 17.525.525 13.701.525c-3.975 0-16.272 4.95-12.447 26.02 0 0 4.799-5.474 12.447-.825" transform="translate(5 4)"/>
        <path d="M4.103 14.476c.522 1.89 3.122 5.864 9.575 5.473 6.454-.39 9.32-5.962 9.32-5.962" transform="translate(5 4)"/>
    </g>
</svg>
