<svg xmlns="http://www.w3.org/2000/svg" width="36" height="36" viewBox="0 0 36 36">
    <g fill="none" fill-rule="evenodd" stroke="#3ABEFF" stroke-linecap="round" stroke-linejoin="round" stroke-width="1.3">
        <path d="M24.014 4.64c-4.41 0-8.45-1.583-11.58-4.206C9.304 3.057 5.264 4.64.854 4.64c-.14 0-.28-.002-.42-.005v6.573c0 7.892 4.992 14.62 12 17.227 7.009-2.607 12-9.335 12-17.227V4.634c-.14.003-.28.005-.42.005z" transform="translate(6 3)"/>
        <path d="M7.888 14.687L12.063 19.336 17.711 9.016" transform="translate(6 3)"/>
    </g>
</svg>
