{
  "inputTypes": [
    {
      "id": 1,
      "title": "Einbruch",
      "icons": [
        "n_image_wired_input_guard_list_selector",
        "n_image_wired_input_guard_main_selector",
        "n_image_wired_input_guard_big_selector"
      ],
      "detectorTypes": [
        {
          "id": 2,
          "title": "Alarmanlage",
          "sectionMask": "3",
          "sectionDefault": 2,
          "isDefaultDetector": 0,
          "alarmTypes": [
            {
              "id": 10,
              "title": "Manueller alarm",
              "isDefaultAlarm": 1,
              "icons": [
                "n_image_cd_alarm_manual_list_selector",
                "n_image_cd_alarm_manual_main_selector",
                "n_image_cd_alarm_manual_big_selector"
              ]
            }
          ]
        },
        {
          "id": 3,
          "title": "Hausnotruf",
          "sectionMask": "3",
          "sectionDefault": 5,
          "isDefaultDetector": 0,
          "alarmTypes": [
            {
              "id": 10,
              "title": "Manueller Hausnotruf-Alarm",
              "isDefaultAlarm": 1,
              "icons": [
                "n_image_cd_medical_manual_list_selector",
                "n_image_cd_medical_manual_main_selector",
                "n_image_cd_medical_manual_big_selector"
              ]
            }
          ]
        },
        {
          "id": 4,
          "title": "Automatische Einbruchmeldeanlage",
          "sectionMask": "3",
          "sectionDefault": 1,
          "isDefaultDetector": 1,
          "alarmTypes": [
            {
              "id": 13,
              "title": "Außenalarm",
              "isDefaultAlarm": 0,
              "icons": [
                "n_image_cd_guard_exterior_list_selector",
                "n_image_cd_guard_exterior_main_selector",
                "n_image_cd_guard_exterior_big_selector"
              ]
            },
            {
              "id": 14,
              "title": "Innenalarm",
              "isDefaultAlarm": 0,
              "icons": [
                "n_image_cd_guard_interior_list_selector",
                "n_image_cd_guard_interior_main_selector",
                "n_image_cd_guard_interior_big_selector"
              ]
            },
            {
              "id": 15,
              "title": "Eingang",
              "isDefaultAlarm": 1,
              "icons": [
                "n_image_cd_guard_entrance_list_selector",
                "n_image_cd_guard_entrance_main_selector",
                "n_image_cd_guard_entrance_big_selector"
              ]
            },
            {
              "id": 16,
              "title": "Einbruch",
              "isDefaultAlarm": 0,
              "icons": [
                "n_image_cd_guard_enter_list_selector",
                "n_image_cd_guard_enter_main_selector",
                "n_image_cd_guard_enter_big_selector"
              ]
            },
            {
              "id": 25,
              "title": "Verschiebung of a construction",
              "isDefaultAlarm": 0,
              "icons": [
                "n_image_cd_guard_travel_list_selector",
                "n_image_cd_guard_travel_main_selector",
                "n_image_cd_guard_travel_big_selector"
              ]
            },
            {
              "id": 32,
              "title": "Fensteröffnung",
              "isDefaultAlarm": 0,
              "icons": [
                "n_image_cd_guard_window_open_list_selector",
                "n_image_cd_guard_window_open_main_selector",
                "n_image_cd_guard_window_open_big_selector"
              ]
            },
            {
              "id": 33,
              "title": "Türöffnung",
              "isDefaultAlarm": 0,
              "icons": [
                "n_image_cd_guard_door_open_list_selector",
                "n_image_cd_guard_door_open_main_selector",
                "n_image_cd_guard_door_open_big_selector"
              ]
            },
            {
              "id": 34,
              "title": "Tresoröffnung",
              "isDefaultAlarm": 0,
              "icons": [
                "n_image_cd_guard_vault_open_list_selector",
                "n_image_cd_guard_vault_open_main_selector",
                "n_image_cd_guard_vault_open_big_selector"
              ]
            },
            {
              "id": 35,
              "title": "Fensterbruch",
              "isDefaultAlarm": 0,
              "icons": [
                "n_image_cd_guard_window_breach_list_selector",
                "n_image_cd_guard_window_breach_main_selector",
                "n_image_cd_guard_window_breach_big_selector"
              ]
            },
            {
              "id": 36,
              "title": "Türzerstörung ",
              "isDefaultAlarm": 0,
              "icons": [
                "n_image_cd_guard_door_breach_list_selector",
                "n_image_cd_guard_door_breach_main_selector",
                "n_image_cd_guard_door_breach_big_selector"
              ]
            },
            {
              "id": 37,
              "title": "Tresoreinbruch",
              "isDefaultAlarm": 0,
              "icons": [
                "n_image_cd_guard_vault_breach_list_selector",
                "n_image_cd_guard_vault_breach_main_selector",
                "n_image_cd_guard_vault_breach_big_selector"
              ]
            },
            {
              "id": 38,
              "title": "Überschreitung des überwachten Bereichs",
              "isDefaultAlarm": 0,
              "icons": [
                "n_image_cd_guard_perimeter_cross_list_selector",
                "n_image_cd_guard_perimeter_cross_main_selector",
                "n_image_cd_guard_perimeter_cross_big_selector"
              ]
            },
            {
              "id": 39,
              "title": "Bewegung im überwachten Bereich",
              "isDefaultAlarm": 0,
              "icons": [
                "n_image_cd_guard_area_move_list_selector",
                "n_image_cd_guard_area_move_main_selector",
                "n_image_cd_guard_area_move_big_selector"
              ]
            }
          ]
        },
        {
          "id": 5,
          "title": "Technische Alarmanlage",
          "sectionMask": "16",
          "sectionDefault": 5,
          "isDefaultDetector": 0,
          "alarmTypes": [
            {
              "id": 22,
              "title": "Gasleck",
              "isDefaultAlarm": 0,
              "icons": [
                "n_image_cd_tech_gas_list_selector",
                "n_image_cd_tech_gas_main_selector",
                "n_image_cd_tech_gas_big_selector"
              ]
            },
            {
              "id": 23,
              "title": "Wasserleck",
              "isDefaultAlarm": 1,
              "icons": [
                "n_image_cd_tech_flood_list_selector",
                "n_image_cd_tech_flood_main_selector",
                "n_image_cd_tech_flood_big_selector"
              ]
            }
          ]
        },
        {
          "id": 6,
          "title": "Telemetriegeräte",
          "sectionMask": "16",
          "sectionDefault": 5,
          "isDefaultDetector": 0,
          "alarmTypes": [
            {
              "id": 18,
              "title": "Temperatursenkung",
              "isDefaultAlarm": 0,
              "icons": [
                "n_image_cd_tele_cold_list_selector",
                "n_image_cd_tele_cold_main_selector",
                "n_image_cd_tele_cold_big_selector"
              ]
            },
            {
              "id": 19,
              "title": "Temperaturerhöhung",
              "isDefaultAlarm": 0,
              "icons": [
                "n_image_cd_tele_heat_list_selector",
                "n_image_cd_tele_heat_main_selector",
                "n_image_cd_tele_heat_big_selector"
              ]
            }
          ]
        }
      ]
    },
    {
      "id": 2,
      "title": "Brandmelder",
      "icons": [
        "n_image_wired_input_fire_list_selector",
        "n_image_wired_input_fire_main_selector",
        "n_image_wired_input_fire_big_selector"
      ],
      "detectorTypes": [
        {
          "id": 1,
          "title": "Brandmeldeanlage",
          "sectionMask": "4",
          "sectionDefault": 3,
          "isDefaultDetector": 1,
          "alarmTypes": [
            {
              "id": 20,
              "title": "Rauch",
              "isDefaultAlarm": 1,
              "icons": [
                "n_image_cd_fire_smoke_list_selector",
                "n_image_cd_fire_smoke_main_selector",
                "n_image_cd_fire_smoke_big_selector"
              ]
            },
            {
              "id": 21,
              "title": "Feuer",
              "isDefaultAlarm": 0,
              "icons": [
                "n_image_cd_fire_fire_list_selector",
                "n_image_cd_fire_fire_main_selector",
                "n_image_cd_fire_fire_big_selector"
              ]
            }
          ]
        }
      ]
    },
    {
      "id": 3,
      "title": "Brandmelder mit zweimaliger Auslösung",
      "icons": [
        "n_image_input_wire_fire_list_selector",
        "n_image_input_wire_fire_main_selector",
        "n_image_input_wire_fire_big_selector"
      ],
      "detectorTypes": [
        {
          "id": 1,
          "title": "Brandmeldeanlage",
          "sectionMask": "4",
          "sectionDefault": 3,
          "isDefaultDetector": 1,
          "alarmTypes": [
            {
              "id": 20,
              "title": "Rauch",
              "isDefaultAlarm": 1,
              "icons": [
                "n_image_cd_fire_smoke_list_selector",
                "n_image_cd_fire_smoke_main_selector",
                "n_image_cd_fire_smoke_big_selector"
              ]
            },
            {
              "id": 21,
              "title": "Feuer",
              "isDefaultAlarm": 0,
              "icons": [
                "n_image_cd_fire_fire_list_selector",
                "n_image_cd_fire_fire_main_selector",
                "n_image_cd_fire_fire_big_selector"
              ]
            }
          ]
        }
      ]
    },
    {
      "id": 4,
      "title": "Anzeige für Ankuft der Festnahmeeinheit"
    }
  ],
  "outputTypes": [
    {
      "id": 14,
      "title": "Sirene",
      "icons": [
        "n_image_siren_list_selector",
        "n_image_siren_main_selector",
        "n_image_siren_big_selector"
      ]
    },
    {
      "id": 15,
      "title": "Leuchte",
      "icons": [
        "n_image_lamp_list_selector",
        "n_image_lamp_main_selector",
        "n_image_lamp_big_selector"
      ]
    }
  ],
  "zoneTypes": [
    {
      "id": 1,
      "title": "Wassermelder",
      "subTitle": "Wassermelder Astra-361 ver. RF",
      "img": "astra_361",
      "icons": [
        "n_image_astra_361_list_selector",
        "n_image_astra_361_main_selector",
        "n_image_astra_361_big_selector"
      ],
      "detectorTypes": [
        {
          "id": 5,
          "title": "Technische Alarmanlage",
          "sectionMask": "16",
          "sectionDefault": 5,
          "isDefaultDetector": 1,
          "alarmTypes": [
            {
              "id": 23,
              "title": "Wasserleck",
              "isDefaultAlarm": 1,
              "icons": [
                "n_image_cd_tech_flood_list_selector",
                "n_image_cd_tech_flood_main_selector",
                "n_image_cd_tech_flood_big_selector"
              ]
            }
          ]
        }
      ]
    },
    {
      "id": 3,
      "title": "Dualer Melder",
      "subTitle": "Dualer Melder",
      "img": "astra_8",
      "icons": [
        "n_image_astra_8_list_selector",
        "n_image_astra_8_main_selector",
        "n_image_astra_8_big_selector"
      ],
      "detectorTypes": [
        {
          "id": 4,
          "title": "Automatische Einbruchmeldeanlage",
          "sectionMask": "3",
          "sectionDefault": 1,
          "isDefaultDetector": 1,
          "alarmTypes": [
            {
              "id": 13,
              "title": "Außenalarm",
              "isDefaultAlarm": 0,
              "icons": [
                "n_image_cd_guard_exterior_list_selector",
                "n_image_cd_guard_exterior_main_selector",
                "n_image_cd_guard_exterior_big_selector"
              ]
            },
            {
              "id": 14,
              "title": "Innenalarm",
              "isDefaultAlarm": 1,
              "icons": [
                "n_image_cd_guard_interior_list_selector",
                "n_image_cd_guard_interior_main_selector",
                "n_image_cd_guard_interior_big_selector"
              ]
            },
            {
              "id": 15,
              "title": "Eingang",
              "isDefaultAlarm": 0,
              "icons": [
                "n_image_cd_guard_entrance_list_selector",
                "n_image_cd_guard_entrance_main_selector",
                "n_image_cd_guard_entrance_big_selector"
              ]
            },
            {
              "id": 16,
              "title": "Einbruch",
              "isDefaultAlarm": 0,
              "icons": [
                "n_image_cd_guard_enter_list_selector",
                "n_image_cd_guard_enter_main_selector",
                "n_image_cd_guard_enter_big_selector"
              ]
            },
            {
              "id": 35,
              "title": "Türzerstörung ",
              "isDefaultAlarm": 0,
              "icons": [
                "n_image_cd_guard_door_breach_list_selector",
                "n_image_cd_guard_door_breach_main_selector",
                "n_image_cd_guard_door_breach_big_selector"
              ]
            },
            {
              "id": 36,
              "title": "Glasbruch",
              "isDefaultAlarm": 0,
              "icons": [
                "n_image_cd_guard_window_breach_list_selector",
                "n_image_cd_guard_window_breach_main_selector",
                "n_image_cd_guard_window_breach_big_selector"
              ]
            },
            {
              "id": 37,
              "title": "Tresoreinbruch",
              "isDefaultAlarm": 0,
              "icons": [
                "n_image_cd_guard_vault_breach_list_selector",
                "n_image_cd_guard_vault_breach_main_selector",
                "n_image_cd_guard_vault_breach_big_selector"
              ]
            },
            {
              "id": 38,
              "title": "Überquerung des überwachten Bereichs",
              "isDefaultAlarm": 0,
              "icons": [
                "n_image_cd_guard_perimeter_cross_list_selector",
                "n_image_cd_guard_perimeter_cross_main_selector",
                "n_image_cd_guard_perimeter_cross_big_selector"
              ]
            },
            {
              "id": 39,
              "title": "Bewegung im überwachten Bereich",
              "isDefaultAlarm": 0,
              "icons": [
                "n_image_cd_guard_area_move_list_selector",
                "n_image_cd_guard_area_move_main_selector",
                "n_image_cd_guard_area_move_big_selector"
              ]
            }
          ]
        }
      ]
    },
    {
      "id": 4,
      "title": "Wassermelder",
      "subTitle": "Wassermelder Astra-361 ver. RF",
      "img": "astra_361",
      "icons": [
        "n_image_astra_361_list_selector",
        "n_image_astra_361_main_selector",
        "n_image_astra_361_big_selector"
      ],
      "detectorTypes": [
        {
          "id": 5,
          "title": "Technische Alarmanlage",
          "sectionMask": "16",
          "sectionDefault": 5,
          "isDefaultDetector": 1,
          "alarmTypes": [
            {
              "id": 23,
              "title": "Wasserleck",
              "isDefaultAlarm": 1,
              "icons": [
                "n_image_cd_tech_flood_list_selector",
                "n_image_cd_tech_flood_main_selector",
                "n_image_cd_tech_flood_big_selector"
              ]
            }
          ]
        }
      ]
    },
    {
      "id": 5,
      "title": "Temperaturmelder",
      "subTitle": "Temperaturmelder Astra-3731",
      "img": "astra_3731",
      "icons": [
        "n_image_astra_3731_list_selector",
        "n_image_astra_3731_main_selector",
        "n_image_astra_3731_big_selector"
      ],
      "detectorTypes": [
        {
          "id": 1,
          "title": "Brandmeldeanlage",
          "sectionMask": "4",
          "sectionDefault": 3,
          "isDefaultDetector": 0,
          "alarmTypes": [
            {
              "id": 19,
              "title": "Überhitzung (Brandfall)",
              "isDefaultAlarm": 0,
              "icons": [
                "n_image_cd_fire_heat_list_selector",
                "n_image_cd_fire_heat_main_selector",
                "n_image_cd_fire_heat_big_selector"
              ]
            },
            {
              "id": 21,
              "title": "Feuer (Brandfall)",
              "isDefaultAlarm": 1,
              "icons": [
                "n_image_cd_fire_fire_list_selector",
                "n_image_cd_fire_fire_main_selector",
                "n_image_cd_fire_fire_big_selector"
              ]
            }
          ]
        },
        {
          "id": 3,
          "title": "Hausnotruf",
          "sectionMask": "2",
          "sectionDefault": 5,
          "isDefaultDetector": 0,
          "alarmTypes": [
            {
              "id": 18,
              "title": "Unterkülung (medizinische)",
              "isDefaultAlarm": 1,
              "icons": [
                "n_image_cd_medical_cold_list_selector",
                "n_image_cd_medical_cold_main_selector",
                "n_image_cd_medical_cold_big_selector"
              ]
            },
            {
              "id": 19,
              "title": "Überhitzung (medizinische)",
              "isDefaultAlarm": 0,
              "icons": [
                "n_image_cd_medical_heat_list_selector",
                "n_image_cd_medical_heat_main_selector",
                "n_image_cd_medical_heat_big_selector"
              ]
            }
          ]
        },
        {
          "id": 5,
          "title": "Technische Alarmanlage",
          "sectionMask": "2",
          "sectionDefault": 5,
          "isDefaultDetector": 0,
          "alarmTypes": [
            {
              "id": 18,
              "title": "Unterkühlung (technische)",
              "isDefaultAlarm": 1,
              "icons": [
                "n_image_cd_tech_cold_list_selector",
                "n_image_cd_tech_cold_main_selector",
                "n_image_cd_tech_cold_big_selector"
              ]
            },
            {
              "id": 19,
              "title": "Überhitzung (technische)",
              "isDefaultAlarm": 0,
              "icons": [
                "n_image_cd_tech_heat_list_selector",
                "n_image_cd_tech_heat_main_selector",
                "n_image_cd_tech_heat_big_selector"
              ]
            }
          ]
        },
        {
          "id": 6,
          "title": "Telemetriegeräte",
          "sectionMask": "16",
          "sectionDefault": 5,
          "isDefaultDetector": 1,
          "alarmTypes": [
            {
              "id": 18,
              "title": "Unterkühlung (Telemetriegeräte)",
              "isDefaultAlarm": 1,
              "icons": [
                "n_image_cd_tele_cold_list_selector",
                "n_image_cd_tele_cold_main_selector",
                "n_image_cd_tele_cold_big_selector"
              ]
            },
            {
              "id": 19,
              "title": "Überhitzung (Telemetriegeräte)",
              "isDefaultAlarm": 0,
              "icons": [
                "n_image_cd_tele_heat_list_selector",
                "n_image_cd_tele_heat_main_selector",
                "n_image_cd_tele_heat_big_selector"
              ]
            }
          ]
        }
      ]
    },
    {
      "id": 7,
      "title": "Alarmanlage",
      "subTitle": "PAlarmanlage",
      "img": "astra_3221",
      "icons": [
        "n_image_astra_3221_list_selector",
        "n_image_astra_3221_main_selector",
        "n_image_astra_3221_big_selector"
      ],
      "detectorTypes": [
        {
          "id": 2,
          "title": "Manuelle Einbruchmeldeanlage",
          "sectionMask": "2",
          "sectionDefault": 2,
          "isDefaultDetector": 1,
          "alarmTypes": [
            {
              "id": 10,
              "title": "Manueller alarm",
              "isDefaultAlarm": 1,
              "icons": [
                "n_image_cd_alarm_manual_list_selector",
                "n_image_cd_alarm_manual_main_selector",
                "n_image_cd_alarm_manual_big_selector"
              ]
            }
          ]
        },
        {
          "id": 3,
          "title": "Hausnotruf",
          "sectionMask": "2",
          "sectionDefault": 5,
          "isDefaultDetector": 0,
          "alarmTypes": [
            {
              "id": 10,
              "title": "Medical Manueller alarm",
              "isDefaultAlarm": 1,
              "icons": [
                "n_image_cd_medical_manual_list_selector",
                "n_image_cd_medical_manual_main_selector",
                "n_image_cd_medical_manual_big_selector"
              ]
            }
          ]
        }
      ]
    },
    {
      "id": 8,
      "title": "Keyfob",
      "subTitle": "Fernsteuerung Astra-RC",
      "img": "astra_rpdk",
      "icons": [
        "n_image_astra_rim_m_rpdk_list_selector",
        "n_image_astra_rim_m_rpdk_main_selector",
        "n_image_astra_rim_m_rpdk_big_selector"
      ],
      "detectorTypes": [
        {
          "id": 2,
          "title": "Manuelle Einbruchmeldeanlage",
          "sectionMask": "2",
          "sectionDefault": 2,
          "isDefaultDetector": 1,
          "alarmTypes": [
            {
              "id": 10,
              "title": "Manueller alarm",
              "isDefaultAlarm": 1,
              "icons": [
                "n_image_cd_alarm_manual_list_selector",
                "n_image_cd_alarm_manual_main_selector",
                "n_image_cd_alarm_manual_big_selector"
              ]
            }
          ]
        },
        {
          "id": 3,
          "title": "Hausnotruf",
          "sectionMask": "2",
          "sectionDefault": 5,
          "isDefaultDetector": 0,
          "alarmTypes": [
            {
              "id": 10,
              "title": "Manueller Hausnotruf-Alarm",
              "isDefaultAlarm": 1,
              "icons": [
                "n_image_cd_medical_manual_list_selector",
                "n_image_cd_medical_manual_main_selector",
                "n_image_cd_medical_manual_big_selector"
              ]
            }
          ]
        }
      ]
    },
    {
      "id": 10,
      "title": "Glass break detector",
      "subTitle": "Glass break detector Astra-6131",
      "img": "astra_6131",
      "icons": [
        "n_image_astra_6131_list_selector",
        "n_image_astra_6131_main_selector",
        "n_image_astra_6131_big_selector"
      ],
      "detectorTypes": [
        {
          "id": 4,
          "title": "Automatische Einbruchmeldeanlage",
          "sectionMask": "3",
          "sectionDefault": 1,
          "isDefaultDetector": 1,
          "alarmTypes": [
            {
              "id": 16,
              "title": "Einbruch",
              "isDefaultAlarm": 0,
              "icons": [
                "n_image_cd_guard_enter_list_selector",
                "n_image_cd_guard_enter_main_selector",
                "n_image_cd_guard_enter_big_selector"
              ]
            },
            {
              "id": 35,
              "title": "Türzerstörung ",
              "isDefaultAlarm": 0,
              "icons": [
                "n_image_cd_guard_door_breach_list_selector",
                "n_image_cd_guard_door_breach_main_selector",
                "n_image_cd_guard_door_breach_big_selector"
              ]
            },
            {
              "id": 36,
              "title": "Glasbruch",
              "isDefaultAlarm": 1,
              "icons": [
                "n_image_cd_guard_window_breach_list_selector",
                "n_image_cd_guard_window_breach_main_selector",
                "n_image_cd_guard_window_breach_big_selector"
              ]
            },
            {
              "id": 37,
              "title": "Tresoreinbruch",
              "isDefaultAlarm": 0,
              "icons": [
                "n_image_cd_guard_vault_breach_list_selector",
                "n_image_cd_guard_vault_breach_main_selector",
                "n_image_cd_guard_vault_breach_big_selector"
              ]
            }
          ]
        }
      ]
    },
    {
      "id": 11,
      "title": "Türöffnungsmelder",
      "subTitle": "Türöffnungsmelder mit Magnetkontakt Аstra-3321",
      "img": "astra_3321",
      "icons": [
        "n_image_astra_3321_list_selector",
        "n_image_astra_3321_main_selector",
        "n_image_astra_3321_big_selector"
      ],
      "detectorTypes": [
        {
          "id": 1,
          "title": "Brandmeldeanlage",
          "sectionMask": "4",
          "sectionDefault": 3,
          "isDefaultDetector": 0,
          "alarmTypes": [
            {
              "id": 10,
              "title": "Manueller Feueralarm",
              "isDefaultAlarm": 0,
              "icons": [
                "n_image_cd_fire_manual_list_selector",
                "n_image_cd_fire_manual_main_selector",
                "n_image_cd_fire_manual_big_selector"
              ]
            },
            {
              "id": 20,
              "title": "Rauch (Brandfall)",
              "isDefaultAlarm": 1,
              "icons": [
                "n_image_cd_fire_smoke_list_selector",
                "n_image_cd_fire_smoke_main_selector",
                "n_image_cd_fire_smoke_big_selector"
              ]
            },
            {
              "id": 21,
              "title": "Feuer (Brandfall)",
              "isDefaultAlarm": 0,
              "icons": [
                "n_image_cd_fire_fire_list_selector",
                "n_image_cd_fire_fire_main_selector",
                "n_image_cd_fire_fire_big_selector"
              ]
            }
          ]
        },
        {
          "id": 2,
          "title": "Manuelle Einbruchmeldeanlage",
          "sectionMask": "2",
          "sectionDefault": 2,
          "isDefaultDetector": 0,
          "alarmTypes": [
            {
              "id": 10,
              "title": "Manueller alarm",
              "isDefaultAlarm": 1,
              "icons": [
                "n_image_cd_alarm_manual_list_selector",
                "n_image_cd_alarm_manual_main_selector",
                "n_image_cd_alarm_manual_big_selector"
              ]
            }
          ]
        },
        {
          "id": 3,
          "title": "Hausnotruf",
          "sectionMask": "19",
          "sectionDefault": 5,
          "isDefaultDetector": 0,
          "alarmTypes": [
            {
              "id": 10,
              "title": "Manueller Hausnotruf-Alarm",
              "isDefaultAlarm": 0,
              "icons": [
                "n_image_cd_medical_manual_list_selector",
                "n_image_cd_medical_manual_main_selector",
                "n_image_cd_medical_manual_big_selector"
              ]
            }
          ]
        },
        {
          "id": 4,
          "title": "Automatische Einbruchmeldeanlage",
          "sectionMask": "3",
          "sectionDefault": 1,
          "isDefaultDetector": 1,
          "alarmTypes": [
            {
              "id": 13,
              "title": "Außenalarm",
              "isDefaultAlarm": 0,
              "icons": [
                "n_image_cd_guard_exterior_list_selector",
                "n_image_cd_guard_exterior_main_selector",
                "n_image_cd_guard_exterior_big_selector"
              ]
            },
            {
              "id": 14,
              "title": "Innenalarm",
              "isDefaultAlarm": 0,
              "icons": [
                "n_image_cd_guard_interior_list_selector",
                "n_image_cd_guard_interior_main_selector",
                "n_image_cd_guard_interior_big_selector"
              ]
            },
            {
              "id": 15,
              "title": "Eingang",
              "isDefaultAlarm": 1,
              "icons": [
                "n_image_cd_guard_entrance_list_selector",
                "n_image_cd_guard_entrance_main_selector",
                "n_image_cd_guard_entrance_big_selector"
              ]
            },
            {
              "id": 16,
              "title": "Einbruch",
              "isDefaultAlarm": 0,
              "icons": [
                "n_image_cd_guard_enter_list_selector",
                "n_image_cd_guard_enter_main_selector",
                "n_image_cd_guard_enter_big_selector"
              ]
            },
            {
              "id": 32,
              "title": "Fensteröffnung",
              "isDefaultAlarm": 0,
              "icons": [
                "n_image_cd_guard_window_open_list_selector",
                "n_image_cd_guard_window_open_main_selector",
                "n_image_cd_guard_window_open_big_selector"
              ]
            },
            {
              "id": 33,
              "title": "Türöffnung",
              "isDefaultAlarm": 0,
              "icons": [
                "n_image_cd_guard_door_open_list_selector",
                "n_image_cd_guard_door_open_main_selector",
                "n_image_cd_guard_door_open_big_selector"
              ]
            },
            {
              "id": 34,
              "title": "Tresoröffnung",
              "isDefaultAlarm": 0,
              "icons": [
                "n_image_cd_guard_vault_open_list_selector",
                "n_image_cd_guard_vault_open_main_selector",
                "n_image_cd_guard_vault_open_big_selector"
              ]
            },
            {
              "id": 35,
              "title": "Türzerstörung ",
              "isDefaultAlarm": 0,
              "icons": [
                "n_image_cd_guard_door_breach_list_selector",
                "n_image_cd_guard_door_breach_main_selector",
                "n_image_cd_guard_door_breach_big_selector"
              ]
            },
            {
              "id": 36,
              "title": "Glasbruch",
              "isDefaultAlarm": 0,
              "icons": [
                "n_image_cd_guard_window_breach_list_selector",
                "n_image_cd_guard_window_breach_main_selector",
                "n_image_cd_guard_window_breach_big_selector"
              ]
            },
            {
              "id": 37,
              "title": "Tresoreinbruch",
              "isDefaultAlarm": 0,
              "icons": [
                "n_image_cd_guard_vault_breach_list_selector",
                "n_image_cd_guard_vault_breach_main_selector",
                "n_image_cd_guard_vault_breach_big_selector"
              ]
            },
            {
              "id": 38,
              "title": "Überschreitung des überwachten Bereichs",
              "isDefaultAlarm": 0,
              "icons": [
                "n_image_cd_guard_perimeter_cross_list_selector",
                "n_image_cd_guard_perimeter_cross_main_selector",
                "n_image_cd_guard_perimeter_cross_big_selector"
              ]
            },
            {
              "id": 39,
              "title": "Bewegung im überwachten Bereich",
              "isDefaultAlarm": 0,
              "icons": [
                "n_image_cd_guard_area_move_list_selector",
                "n_image_cd_guard_area_move_main_selector",
                "n_image_cd_guard_area_move_big_selector"
              ]
            }
          ]
        },
        {
          "id": 5,
          "title": "Technische Alarmanlage",
          "sectionMask": "16",
          "sectionDefault": 5,
          "isDefaultDetector": 0,
          "alarmTypes": [
            {
              "id": 10,
              "title": "Manueller technischer Alarm",
              "isDefaultAlarm": 0,
              "icons": [
                "n_image_cd_tech_manual_list_selector",
                "n_image_cd_tech_manual_main_selector",
                "n_image_cd_tech_manual_big_selector"
              ]
            },
            {
              "id": 20,
              "title": "Rauch (technische)",
              "isDefaultAlarm": 0,
              "icons": [
                "n_image_cd_tech_smoke_list_selector",
                "n_image_cd_tech_smoke_main_selector",
                "n_image_cd_tech_smoke_big_selector"
              ]
            },
            {
              "id": 22,
              "title": "Gasleck",
              "isDefaultAlarm": 0,
              "icons": [
                "n_image_cd_tech_gas_list_selector",
                "n_image_cd_tech_gas_main_selector",
                "n_image_cd_tech_gas_big_selector"
              ]
            },
            {
              "id": 23,
              "title": "Wasserleck",
              "isDefaultAlarm": 0,
              "icons": [
                "n_image_cd_tech_flood_list_selector",
                "n_image_cd_tech_flood_main_selector",
                "n_image_cd_tech_flood_big_selector"
              ]
            },
            {
              "id": 25,
              "title": "Verschiebung von Gegenständen (technische)",
              "isDefaultAlarm": 0
            }
          ]
        },
        {
          "id": 6,
          "title": "Telemetriegeräte",
          "sectionMask": "16",
          "sectionDefault": 5,
          "isDefaultDetector": 0,
          "alarmTypes": [
            {
              "id": 10,
              "title": "Manueller telemetrischer Alarm",
              "isDefaultAlarm": 0,
              "icons": [
                "n_image_cd_tele_manual_list_selector",
                "n_image_cd_tele_manual_main_selector",
                "n_image_cd_tele_manual_big_selector"
              ]
            },
            {
              "id": 18,
              "title": "Temperatursenkung",
              "isDefaultAlarm": 0,
              "icons": [
                "n_image_cd_tele_cold_list_selector",
                "n_image_cd_tele_cold_main_selector",
                "n_image_cd_tele_cold_big_selector"
              ]
            },
            {
              "id": 19,
              "title": "Temperaturerhöhung",
              "isDefaultAlarm": 0,
              "icons": [
                "n_image_cd_tele_heat_list_selector",
                "n_image_cd_tele_heat_main_selector",
                "n_image_cd_tele_heat_big_selector"
              ]
            }
          ]
        }
      ]
    },
    {
      "id": 12,
      "title": "Bewegungsensor",
      "subTitle": "Bewegungsensor Astra-5121",
      "img": "astra_5131",
      "icons": [
        "n_image_astra_5121_list_selector",
        "n_image_astra_5121_main_selector",
        "n_image_astra_5121_big_selector"
      ],
      "detectorTypes": [
        {
          "id": 4,
          "title": "Automatische Einbruchmeldeanlage",
          "sectionMask": "3",
          "sectionDefault": 1,
          "isDefaultDetector": 1,
          "alarmTypes": [
            {
              "id": 13,
              "title": "Außenalarm",
              "isDefaultAlarm": 0,
              "icons": [
                "n_image_cd_guard_exterior_list_selector",
                "n_image_cd_guard_exterior_main_selector",
                "n_image_cd_guard_exterior_big_selector"
              ]
            },
            {
              "id": 14,
              "title": "Innenalarm",
              "isDefaultAlarm": 1,
              "icons": [
                "n_image_cd_guard_interior_list_selector",
                "n_image_cd_guard_interior_main_selector",
                "n_image_cd_guard_interior_big_selector"
              ]
            },
            {
              "id": 15,
              "title": "Eingang",
              "isDefaultAlarm": 0,
              "icons": [
                "n_image_cd_guard_entrance_list_selector",
                "n_image_cd_guard_entrance_main_selector",
                "n_image_cd_guard_entrance_big_selector"
              ]
            },
            {
              "id": 16,
              "title": "Einbruch",
              "isDefaultAlarm": 0,
              "icons": [
                "n_image_cd_guard_enter_list_selector",
                "n_image_cd_guard_enter_main_selector",
                "n_image_cd_guard_enter_big_selector"
              ]
            },
            {
              "id": 39,
              "title": "Bewegung im überwachten Bereich",
              "isDefaultAlarm": 0,
              "icons": [
                "n_image_cd_guard_area_move_list_selector",
                "n_image_cd_guard_area_move_main_selector",
                "n_image_cd_guard_area_move_big_selector"
              ]
            }
          ]
        }
      ]
    },
    {
      "id": 13,
      "title": "Rauchmelder",
      "subTitle": "Rauchmelder Astra-421 ver. RF",
      "img": "astra_421",
      "icons": [
        "n_image_astra_421_rk_list_selector",
        "n_image_astra_421_rk_main_selector",
        "n_image_astra_421_rk_big_selector"
      ],
      "detectorTypes": [
        {
          "id": 1,
          "title": "Brandmeldeanlage",
          "sectionMask": "4",
          "sectionDefault": 3,
          "isDefaultDetector": 1,
          "alarmTypes": [
            {
              "id": 20,
              "title": "Rauch",
              "isDefaultAlarm": 1,
              "icons": [
                "n_image_cd_fire_smoke_list_selector",
                "n_image_cd_fire_smoke_main_selector",
                "n_image_cd_fire_smoke_big_selector"
              ]
            }
          ]
        }
      ]
    },
    {
      "id": 15,
      "title": "Sensorbedienfeld",
      "subTitle": "Sensorbedienfeld Astra-8121",
      "img": "ic_astra_8121",
      "icons": [
        "n_image_astra_8121_list_selector",
        "n_image_astra_8121_main_selector",
        "n_image_astra_8121_big_selector"
      ],
      "detectorTypes": [
        {
          "id": 11,
          "title": "Sensorbedienfeld",
          "sectionDefault": 0,
          "isDefaultDetector": 1
        }
      ]
    },
    {
      "id": 2331,
      "title": "Licht- und Tonsirene",
      "subTitle": "Licht- und Tonsirene Astra-2331",
      "img": "astra_2331",
      "icons": [
        "n_image_astra_2331_list_selector",
        "n_image_astra_2331_main_selector",
        "n_image_astra_2331_big_selector"
      ],
      "detectorTypes": [
        {
          "id": 25,
          "title": "Sirene",
          "sectionDefault": 0,
          "isDefaultDetector": 1
        }
      ]
    },
    {
      "id": 24,
      "title": "Sensorbedienfeld",
      "subTitle": "Keypad Astra-8121",
      "img": "astra_8121",
      "icons": [
        "n_image_astra_8121_list_selector",
        "n_image_astra_8121_main_selector",
        "n_image_astra_8121_big_selector"
      ],
      "detectorTypes": [
        {
          "id": 11,
          "title": "Sensorbedienfeld",
          "sectionDefault": 0,
          "isDefaultDetector": 1
        }
      ]
    },
    {
      "id": 8121,
      "title": "Sensorbedienfeld",
      "subTitle": "Keypad Astra-8121",
      "img": "astra_8121",
      "icons": [
        "n_image_astra_8121_list_selector",
        "n_image_astra_8121_main_selector",
        "n_image_astra_8121_big_selector"
      ],
      "detectorTypes": [
        {
          "id": 11,
          "title": "Sensorbedienfeld",
          "sectionDefault": 0,
          "isDefaultDetector": 1
        }
      ]
    },
    {
      "id": 8131,
      "title": "Sensorbedienfeld",
      "subTitle": "Keypad Astra-8131",
      "img": "astra_8131",
      "icons": [
        "n_image_astra_8121_list_selector",
        "n_image_astra_8121_main_selector",
        "n_image_astra_8121_big_selector"
      ],
      "detectorTypes": [
        {
          "id": 16,
          "title": "Sensorbedienfeld",
          "sectionDefault": 0,
          "isDefaultDetector": 1
        }
      ]
    },
    {
      "id": 8531,
      "title": "RFID-Leser",
      "subTitle": "RFID-Leser Astra-8531",
      "img": "astra_8531",
      "detectorTypes": [
        {
          "id": 12,
          "title": "Kartenleser",
          "sectionDefault": 0,
          "isDefaultDetector": 1
        }
      ]
    },
    {
      "id": 8231,
      "title": "Funkrelais",
      "subTitle": "Funkrelais Astra-8231",
      "img": "astra_8231",
      "icons": [
        "n_image_astra_8231_list_selector",
        "n_image_astra_8231_main_selector",
        "n_image_astra_8231_big_selector"
      ]
    },
    {
      "id": 8731,
      "title": "Smarte Steckdose",
      "subTitle": "Smarte Steckdose Astra-8731",
      "img": "astra_8731",
      "icons": [
        "n_image_astra_8731_list_selector",
        "n_image_astra_8731_main_selector",
        "n_image_astra_8731_big_selector"
      ]
    },
    {
      "id": 421,
      "title": "Rauchmelder",
      "subTitle": "Rauchmelder Astra-421 ver. RF",
      "img": "astra_421rk2",
      "icons": [
        "n_image_astra_421_rk_list_selector",
        "n_image_astra_421_rk_main_selector",
        "n_image_astra_421_rk_big_selector"
      ],
      "detectorTypes": [
        {
          "id": 1,
          "title": "Brandmeldeanlage",
          "sectionMask": "4",
          "sectionDefault": 3,
          "isDefaultDetector": 1,
          "alarmTypes": [
            {
              "id": 20,
              "title": "Rauch",
              "isDefaultAlarm": 1,
              "icons": [
                "n_image_cd_fire_smoke_list_selector",
                "n_image_cd_fire_smoke_main_selector",
                "n_image_cd_fire_smoke_big_selector"
              ]
            },
            {
              "id": 21,
              "title": "Feuer",
              "isDefaultAlarm": 0,
              "icons": [
                "n_image_cd_fire_fire_list_selector",
                "n_image_cd_fire_fire_main_selector",
                "n_image_cd_fire_fire_big_selector"
              ]
            }
          ]
        }
      ]
    },
    {
      "id": 431,
      "title": "Hitzemelder",
      "subTitle": "Hitzemelder Astra-431 ver. RF",
      "img": "astra_421rk2",
      "icons": [
        "n_image_astra_431_rk_list_selector",
        "n_image_astra_431_rk_main_selector",
        "n_image_astra_431_rk_big_selector"
      ],
      "detectorTypes": [
        {
          "id": 1,
          "title": "Brandmeldeanlage",
          "sectionMask": "4",
          "sectionDefault": 3,
          "isDefaultDetector": 1,
          "alarmTypes": [
            {
              "id": 19,
              "title": "Überhitzung (Brandfall)",
              "isDefaultAlarm": 1,
              "icons": [
                "n_image_cd_fire_heat_list_selector",
                "n_image_cd_fire_heat_main_selector",
                "n_image_cd_fire_heat_big_selector"
              ]
            },
            {
              "id": 21,
              "title": "Feuer",
              "isDefaultAlarm": 0,
              "icons": [
                "n_image_cd_fire_fire_list_selector",
                "n_image_cd_fire_fire_main_selector",
                "n_image_cd_fire_fire_big_selector"
              ]
            }
          ]
        }
      ]
    },
    {
      "id": 4511,
      "title": "Feueralarmknopf",
      "subTitle": "Manueller Feuermelder Astra-4511",
      "img": "astra_4511",
      "icons": [
        "n_image_astra_4511_list_selector",
        "n_image_astra_4511_main_selector",
        "n_image_astra_4511_big_selector"
      ],
      "detectorTypes": [
        {
          "id": 1,
          "title": "Brandmeldeanlage",
          "sectionMask": "4",
          "sectionDefault": 3,
          "isDefaultDetector": 1,
          "alarmTypes": [
            {
              "id": 10,
              "title": "Manueller Feueralarm",
              "isDefaultAlarm": 1,
              "icons": [
                "n_image_cd_fire_manual_list_selector",
                "n_image_cd_fire_manual_main_selector",
                "n_image_cd_fire_manual_big_selector"
              ]
            },
            {
              "id": 20,
              "title": "Rauch",
              "isDefaultAlarm": 1,
              "icons": [
                "n_image_cd_fire_smoke_list_selector",
                "n_image_cd_fire_smoke_main_selector",
                "n_image_cd_fire_smoke_big_selector"
              ]
            },
            {
              "id": 21,
              "title": "Feuer",
              "isDefaultAlarm": 0,
              "icons": [
                "n_image_cd_fire_fire_list_selector",
                "n_image_cd_fire_fire_main_selector",
                "n_image_cd_fire_fire_big_selector"
              ]
            }
          ]
        }
      ]
    }
  ]
}
