{
  "inputTypes": [
    {
      "id": 1,
      "title": "Intrusion hardwire zone",
      "icons": [
        "n_image_wired_input_guard_list_selector",
        "n_image_wired_input_guard_main_selector",
        "n_image_wired_input_guard_big_selector"
      ],
      "detectorTypes": [
        {
          "id": 2,
          "title": "Panic button system",
          "sectionMask": "3",
          "sectionDefault": 2,
          "isDefaultDetector": 0,
          "alarmTypes": [
            {
              "id": 10,
              "title": "Manual alarm",
              "isDefaultAlarm": 1,
              "icons": [
                "n_image_cd_alarm_manual_list_selector",
                "n_image_cd_alarm_manual_main_selector",
                "n_image_cd_alarm_manual_big_selector"
              ]
            }
          ]
        },
        {
          "id": 3,
          "title": "Medical alarm",
          "sectionMask": "3",
          "sectionDefault": 5,
          "isDefaultDetector": 0,
          "alarmTypes": [
            {
              "id": 10,
              "title": "Medical manual alarm",
              "isDefaultAlarm": 1,
              "icons": [
                "n_image_cd_medical_manual_list_selector",
                "n_image_cd_medical_manual_main_selector",
                "n_image_cd_medical_manual_big_selector"
              ]
            }
          ]
        },
        {
          "id": 4,
          "title": "Automatic intrusion alarm system",
          "sectionMask": "3",
          "sectionDefault": 1,
          "isDefaultDetector": 1,
          "alarmTypes": [
            {
              "id": 13,
              "title": "External",
              "isDefaultAlarm": 0,
              "icons": [
                "n_image_cd_guard_exterior_list_selector",
                "n_image_cd_guard_exterior_main_selector",
                "n_image_cd_guard_exterior_big_selector"
              ]
            },
            {
              "id": 14,
              "title": "Internal",
              "isDefaultAlarm": 0,
              "icons": [
                "n_image_cd_guard_interior_list_selector",
                "n_image_cd_guard_interior_main_selector",
                "n_image_cd_guard_interior_big_selector"
              ]
            },
            {
              "id": 15,
              "title": "Entrance",
              "isDefaultAlarm": 1,
              "icons": [
                "n_image_cd_guard_entrance_list_selector",
                "n_image_cd_guard_entrance_main_selector",
                "n_image_cd_guard_entrance_big_selector"
              ]
            },
            {
              "id": 16,
              "title": "Intrusion",
              "isDefaultAlarm": 0,
              "icons": [
                "n_image_cd_guard_enter_list_selector",
                "n_image_cd_guard_enter_main_selector",
                "n_image_cd_guard_enter_big_selector"
              ]
            },
            {
              "id": 25,
              "title": "Moving of a construction",
              "isDefaultAlarm": 0,
              "icons": [
                "n_image_cd_guard_travel_list_selector",
                "n_image_cd_guard_travel_main_selector",
                "n_image_cd_guard_travel_big_selector"
              ]
            },
            {
              "id": 32,
              "title": "Window opening",
              "isDefaultAlarm": 0,
              "icons": [
                "n_image_cd_guard_window_open_list_selector",
                "n_image_cd_guard_window_open_main_selector",
                "n_image_cd_guard_window_open_big_selector"
              ]
            },
            {
              "id": 33,
              "title": "Door opening",
              "isDefaultAlarm": 0,
              "icons": [
                "n_image_cd_guard_door_open_list_selector",
                "n_image_cd_guard_door_open_main_selector",
                "n_image_cd_guard_door_open_big_selector"
              ]
            },
            {
              "id": 34,
              "title": "Safe opening",
              "isDefaultAlarm": 0,
              "icons": [
                "n_image_cd_guard_vault_open_list_selector",
                "n_image_cd_guard_vault_open_main_selector",
                "n_image_cd_guard_vault_open_big_selector"
              ]
            },
            {
              "id": 35,
              "title": "Window breaking",
              "isDefaultAlarm": 0,
              "icons": [
                "n_image_cd_guard_window_breach_list_selector",
                "n_image_cd_guard_window_breach_main_selector",
                "n_image_cd_guard_window_breach_big_selector"
              ]
            },
            {
              "id": 36,
              "title": "Door breaking",
              "isDefaultAlarm": 0,
              "icons": [
                "n_image_cd_guard_door_breach_list_selector",
                "n_image_cd_guard_door_breach_main_selector",
                "n_image_cd_guard_door_breach_big_selector"
              ]
            },
            {
              "id": 37,
              "title": "Safe cracking",
              "isDefaultAlarm": 0,
              "icons": [
                "n_image_cd_guard_vault_breach_list_selector",
                "n_image_cd_guard_vault_breach_main_selector",
                "n_image_cd_guard_vault_breach_big_selector"
              ]
            },
            {
              "id": 38,
              "title": "Crossing perimeter",
              "isDefaultAlarm": 0,
              "icons": [
                "n_image_cd_guard_perimeter_cross_list_selector",
                "n_image_cd_guard_perimeter_cross_main_selector",
                "n_image_cd_guard_perimeter_cross_big_selector"
              ]
            },
            {
              "id": 39,
              "title": "Movement on a protected area",
              "isDefaultAlarm": 0,
              "icons": [
                "n_image_cd_guard_area_move_list_selector",
                "n_image_cd_guard_area_move_main_selector",
                "n_image_cd_guard_area_move_big_selector"
              ]
            }
          ]
        },
        {
          "id": 5,
          "title": "Emergency alarm system",
          "sectionMask": "16",
          "sectionDefault": 5,
          "isDefaultDetector": 0,
          "alarmTypes": [
            {
              "id": 22,
              "title": "Gas leakage",
              "isDefaultAlarm": 0,
              "icons": [
                "n_image_cd_tech_gas_list_selector",
                "n_image_cd_tech_gas_main_selector",
                "n_image_cd_tech_gas_big_selector"
              ]
            },
            {
              "id": 23,
              "title": "Water leakage",
              "isDefaultAlarm": 1,
              "icons": [
                "n_image_cd_tech_flood_list_selector",
                "n_image_cd_tech_flood_main_selector",
                "n_image_cd_tech_flood_big_selector"
              ]
            }
          ]
        },
        {
          "id": 6,
          "title": "Telemetry equipment",
          "sectionMask": "16",
          "sectionDefault": 5,
          "isDefaultDetector": 0,
          "alarmTypes": [
            {
              "id": 18,
              "title": "Temperature decrease",
              "isDefaultAlarm": 0,
              "icons": [
                "n_image_cd_tele_cold_list_selector",
                "n_image_cd_tele_cold_main_selector",
                "n_image_cd_tele_cold_big_selector"
              ]
            },
            {
              "id": 19,
              "title": "Temperature increase",
              "isDefaultAlarm": 0,
              "icons": [
                "n_image_cd_tele_heat_list_selector",
                "n_image_cd_tele_heat_main_selector",
                "n_image_cd_tele_heat_big_selector"
              ]
            }
          ]
        }
      ]
    },
    {
      "id": 2,
      "title": "Fire type hardwired zone",
      "icons": [
        "n_image_wired_input_fire_list_selector",
        "n_image_wired_input_fire_main_selector",
        "n_image_wired_input_fire_big_selector"
      ],
      "detectorTypes": [
        {
          "id": 1,
          "title": "Fire alarm",
          "sectionMask": "4",
          "sectionDefault": 3,
          "isDefaultDetector": 1,
          "alarmTypes": [
            {
              "id": 20,
              "title": "Smoke",
              "isDefaultAlarm": 1,
              "icons": [
                "n_image_cd_fire_smoke_list_selector",
                "n_image_cd_fire_smoke_main_selector",
                "n_image_cd_fire_smoke_big_selector"
              ]
            },
            {
              "id": 21,
              "title": "Fire",
              "isDefaultAlarm": 0,
              "icons": [
                "n_image_cd_fire_fire_list_selector",
                "n_image_cd_fire_fire_main_selector",
                "n_image_cd_fire_fire_big_selector"
              ]
            }
          ]
        }
      ]
    },
    {
      "id": 3,
      "title": "Fire harwired zone (double event)",
      "icons": [
        "n_image_input_wire_fire_list_selector",
        "n_image_input_wire_fire_main_selector",
        "n_image_input_wire_fire_big_selector"
      ],
      "detectorTypes": [
        {
          "id": 1,
          "title": "Fire alarm",
          "sectionMask": "4",
          "sectionDefault": 3,
          "isDefaultDetector": 1,
          "alarmTypes": [
            {
              "id": 20,
              "title": "Smoke",
              "isDefaultAlarm": 1,
              "icons": [
                "n_image_cd_fire_smoke_list_selector",
                "n_image_cd_fire_smoke_main_selector",
                "n_image_cd_fire_smoke_big_selector"
              ]
            },
            {
              "id": 21,
              "title": "Fire",
              "isDefaultAlarm": 0,
              "icons": [
                "n_image_cd_fire_fire_list_selector",
                "n_image_cd_fire_fire_main_selector",
                "n_image_cd_fire_fire_big_selector"
              ]
            }
          ]
        }
      ]
    },
    {
      "id": 4,
      "title": "Rapid Response Unit arrive indicator"
    }
  ],
  "outputTypes": [
    {
      "id": 14,
      "title": "Siren",
      "icons": [
        "n_image_siren_list_selector",
        "n_image_siren_main_selector",
        "n_image_siren_big_selector"
      ]
    },
    {
      "id": 15,
      "title": "Alarm indicator",
      "icons": [
        "n_image_lamp_list_selector",
        "n_image_lamp_main_selector",
        "n_image_lamp_big_selector"
      ]
    }
  ],
  "zoneTypes": [
    {
      "id": 1,
      "title": "Water leakage detector",
      "subTitle": "Water leakage detector Astra-361 ver. RF",
      "img": "astra_361",
      "icons": [
        "n_image_astra_361_list_selector",
        "n_image_astra_361_main_selector",
        "n_image_astra_361_big_selector"
      ],
      "detectorTypes": [
        {
          "id": 5,
          "title": "Emergency alarm system",
          "sectionMask": "16",
          "sectionDefault": 5,
          "isDefaultDetector": 1,
          "alarmTypes": [
            {
              "id": 23,
              "title": "Water leakage",
              "isDefaultAlarm": 1,
              "icons": [
                "n_image_cd_tech_flood_list_selector",
                "n_image_cd_tech_flood_main_selector",
                "n_image_cd_tech_flood_big_selector"
              ]
            }
          ]
        }
      ]
    },
    {
      "id": 3,
      "title": "Combined detector GB (channel 1) + PIR (channel 2)",
      "subTitle": "Combined detector GB (channel 1) + PIR (channel 2)",
      "img": "astra_8",
      "icons": [
        "n_image_astra_8_list_selector",
        "n_image_astra_8_main_selector",
        "n_image_astra_8_big_selector"
      ],
      "detectorTypes": [
        {
          "id": 4,
          "title": "Automatic intrusion alarm system",
          "sectionMask": "3",
          "sectionDefault": 1,
          "isDefaultDetector": 1,
          "alarmTypes": [
            {
              "id": 13,
              "title": "External",
              "isDefaultAlarm": 0,
              "icons": [
                "n_image_cd_guard_exterior_list_selector",
                "n_image_cd_guard_exterior_main_selector",
                "n_image_cd_guard_exterior_big_selector"
              ]
            },
            {
              "id": 14,
              "title": "Internal",
              "isDefaultAlarm": 1,
              "icons": [
                "n_image_cd_guard_interior_list_selector",
                "n_image_cd_guard_interior_main_selector",
                "n_image_cd_guard_interior_big_selector"
              ]
            },
            {
              "id": 15,
              "title": "Entrance",
              "isDefaultAlarm": 0,
              "icons": [
                "n_image_cd_guard_entrance_list_selector",
                "n_image_cd_guard_entrance_main_selector",
                "n_image_cd_guard_entrance_big_selector"
              ]
            },
            {
              "id": 16,
              "title": "Intrusion",
              "isDefaultAlarm": 0,
              "icons": [
                "n_image_cd_guard_enter_list_selector",
                "n_image_cd_guard_enter_main_selector",
                "n_image_cd_guard_enter_big_selector"
              ]
            },
            {
              "id": 35,
              "title": "Door breaking",
              "isDefaultAlarm": 0,
              "icons": [
                "n_image_cd_guard_door_breach_list_selector",
                "n_image_cd_guard_door_breach_main_selector",
                "n_image_cd_guard_door_breach_big_selector"
              ]
            },
            {
              "id": 36,
              "title": "Window breaking",
              "isDefaultAlarm": 0,
              "icons": [
                "n_image_cd_guard_window_breach_list_selector",
                "n_image_cd_guard_window_breach_main_selector",
                "n_image_cd_guard_window_breach_big_selector"
              ]
            },
            {
              "id": 37,
              "title": "Safe cracking",
              "isDefaultAlarm": 0,
              "icons": [
                "n_image_cd_guard_vault_breach_list_selector",
                "n_image_cd_guard_vault_breach_main_selector",
                "n_image_cd_guard_vault_breach_big_selector"
              ]
            },
            {
              "id": 38,
              "title": "Crossing the perimeter",
              "isDefaultAlarm": 0,
              "icons": [
                "n_image_cd_guard_perimeter_cross_list_selector",
                "n_image_cd_guard_perimeter_cross_main_selector",
                "n_image_cd_guard_perimeter_cross_big_selector"
              ]
            },
            {
              "id": 39,
              "title": "Movement in the protected area",
              "isDefaultAlarm": 0,
              "icons": [
                "n_image_cd_guard_area_move_list_selector",
                "n_image_cd_guard_area_move_main_selector",
                "n_image_cd_guard_area_move_big_selector"
              ]
            }
          ]
        }
      ]
    },
    {
      "id": 4,
      "title": "Water leakage detector",
      "subTitle": "Water leakage detector Astra-361 ver. RF",
      "img": "astra_361",
      "icons": [
        "n_image_astra_361_list_selector",
        "n_image_astra_361_main_selector",
        "n_image_astra_361_big_selector"
      ],
      "detectorTypes": [
        {
          "id": 5,
          "title": "Emergency alarm system",
          "sectionMask": "16",
          "sectionDefault": 5,
          "isDefaultDetector": 1,
          "alarmTypes": [
            {
              "id": 23,
              "title": "Water leakage",
              "isDefaultAlarm": 1,
              "icons": [
                "n_image_cd_tech_flood_list_selector",
                "n_image_cd_tech_flood_main_selector",
                "n_image_cd_tech_flood_big_selector"
              ]
            }
          ]
        }
      ]
    },
    {
      "id": 5,
      "title": "Temperature detector",
      "subTitle": "Temperature detector Astra-3731",
      "img": "astra_3731",
      "icons": [
        "n_image_astra_3731_list_selector",
        "n_image_astra_3731_main_selector",
        "n_image_astra_3731_big_selector"
      ],
      "detectorTypes": [
        {
          "id": 1,
          "title": "Fire alarm",
          "sectionMask": "4",
          "sectionDefault": 3,
          "isDefaultDetector": 0,
          "alarmTypes": [
            {
              "id": 19,
              "title": "Overheating (fire)",
              "isDefaultAlarm": 0,
              "icons": [
                "n_image_cd_fire_heat_list_selector",
                "n_image_cd_fire_heat_main_selector",
                "n_image_cd_fire_heat_big_selector"
              ]
            },
            {
              "id": 21,
              "title": "Fire (fire)",
              "isDefaultAlarm": 1,
              "icons": [
                "n_image_cd_fire_fire_list_selector",
                "n_image_cd_fire_fire_main_selector",
                "n_image_cd_fire_fire_big_selector"
              ]
            }
          ]
        },
        {
          "id": 3,
          "title": "Medical alarm",
          "sectionMask": "2",
          "sectionDefault": 5,
          "isDefaultDetector": 0,
          "alarmTypes": [
            {
              "id": 18,
              "title": "Hypothermia (medical)",
              "isDefaultAlarm": 1,
              "icons": [
                "n_image_cd_medical_cold_list_selector",
                "n_image_cd_medical_cold_main_selector",
                "n_image_cd_medical_cold_big_selector"
              ]
            },
            {
              "id": 19,
              "title": "Overheating (medical)",
              "isDefaultAlarm": 0,
              "icons": [
                "n_image_cd_medical_heat_list_selector",
                "n_image_cd_medical_heat_main_selector",
                "n_image_cd_medical_heat_big_selector"
              ]
            }
          ]
        },
        {
          "id": 5,
          "title": "Emergency alarm system",
          "sectionMask": "2",
          "sectionDefault": 5,
          "isDefaultDetector": 0,
          "alarmTypes": [
            {
              "id": 18,
              "title": "Hypothermia (technological)",
              "isDefaultAlarm": 1,
              "icons": [
                "n_image_cd_tech_cold_list_selector",
                "n_image_cd_tech_cold_main_selector",
                "n_image_cd_tech_cold_big_selector"
              ]
            },
            {
              "id": 19,
              "title": "Overheating (technological)",
              "isDefaultAlarm": 0,
              "icons": [
                "n_image_cd_tech_heat_list_selector",
                "n_image_cd_tech_heat_main_selector",
                "n_image_cd_tech_heat_big_selector"
              ]
            }
          ]
        },
        {
          "id": 6,
          "title": "Telemetry equipment",
          "sectionMask": "16",
          "sectionDefault": 5,
          "isDefaultDetector": 1,
          "alarmTypes": [
            {
              "id": 18,
              "title": "Hypothermia (telemetry equipment)",
              "isDefaultAlarm": 1,
              "icons": [
                "n_image_cd_tele_cold_list_selector",
                "n_image_cd_tele_cold_main_selector",
                "n_image_cd_tele_cold_big_selector"
              ]
            },
            {
              "id": 19,
              "title": "Overheating (telemetry equipment)",
              "isDefaultAlarm": 0,
              "icons": [
                "n_image_cd_tele_heat_list_selector",
                "n_image_cd_tele_heat_main_selector",
                "n_image_cd_tele_heat_big_selector"
              ]
            }
          ]
        }
      ]
    },
    {
      "id": 7,
      "title": "Panic button",
      "subTitle": "Panic button with channel control",
      "img": "astra_3221",
      "icons": [
        "n_image_astra_3221_list_selector",
        "n_image_astra_3221_main_selector",
        "n_image_astra_3221_big_selector"
      ],
      "detectorTypes": [
        {
          "id": 2,
          "title": "Panic button system",
          "sectionMask": "2",
          "sectionDefault": 2,
          "isDefaultDetector": 1,
          "alarmTypes": [
            {
              "id": 10,
              "title": "Manual alarm",
              "isDefaultAlarm": 1,
              "icons": [
                "n_image_cd_alarm_manual_list_selector",
                "n_image_cd_alarm_manual_main_selector",
                "n_image_cd_alarm_manual_big_selector"
              ]
            }
          ]
        },
        {
          "id": 3,
          "title": "Medical alarm",
          "sectionMask": "2",
          "sectionDefault": 5,
          "isDefaultDetector": 0,
          "alarmTypes": [
            {
              "id": 10,
              "title": "Medical Manual alarm",
              "isDefaultAlarm": 1,
              "icons": [
                "n_image_cd_medical_manual_list_selector",
                "n_image_cd_medical_manual_main_selector",
                "n_image_cd_medical_manual_big_selector"
              ]
            }
          ]
        }
      ]
    },
    {
      "id": 8,
      "title": "Keyfob",
      "subTitle": "Remote control Astra-RC",
      "img": "astra_rpdk",
      "icons": [
        "n_image_astra_rim_m_rpdk_list_selector",
        "n_image_astra_rim_m_rpdk_main_selector",
        "n_image_astra_rim_m_rpdk_big_selector"
      ],
      "detectorTypes": [
        {
          "id": 2,
          "title": "Panic button system",
          "sectionMask": "2",
          "sectionDefault": 2,
          "isDefaultDetector": 1,
          "alarmTypes": [
            {
              "id": 10,
              "title": "Manual alarm",
              "isDefaultAlarm": 1,
              "icons": [
                "n_image_cd_alarm_manual_list_selector",
                "n_image_cd_alarm_manual_main_selector",
                "n_image_cd_alarm_manual_big_selector"
              ]
            }
          ]
        },
        {
          "id": 3,
          "title": "Medical alarm",
          "sectionMask": "2",
          "sectionDefault": 5,
          "isDefaultDetector": 0,
          "alarmTypes": [
            {
              "id": 10,
              "title": "Medical manual alarm",
              "isDefaultAlarm": 1,
              "icons": [
                "n_image_cd_medical_manual_list_selector",
                "n_image_cd_medical_manual_main_selector",
                "n_image_cd_medical_manual_big_selector"
              ]
            }
          ]
        }
      ]
    },
    {
      "id": 10,
      "title": "Glass break detector",
      "subTitle": "Glass break detector Astra-6131",
      "img": "astra_6131",
      "icons": [
        "n_image_astra_6131_list_selector",
        "n_image_astra_6131_main_selector",
        "n_image_astra_6131_big_selector"
      ],
      "detectorTypes": [
        {
          "id": 4,
          "title": "Automatic intrusion alarm system",
          "sectionMask": "3",
          "sectionDefault": 1,
          "isDefaultDetector": 1,
          "alarmTypes": [
            {
              "id": 16,
              "title": "Intrusion",
              "isDefaultAlarm": 0,
              "icons": [
                "n_image_cd_guard_enter_list_selector",
                "n_image_cd_guard_enter_main_selector",
                "n_image_cd_guard_enter_big_selector"
              ]
            },
            {
              "id": 35,
              "title": "Door breaking",
              "isDefaultAlarm": 0,
              "icons": [
                "n_image_cd_guard_door_breach_list_selector",
                "n_image_cd_guard_door_breach_main_selector",
                "n_image_cd_guard_door_breach_big_selector"
              ]
            },
            {
              "id": 36,
              "title": "Window breaking",
              "isDefaultAlarm": 1,
              "icons": [
                "n_image_cd_guard_window_breach_list_selector",
                "n_image_cd_guard_window_breach_main_selector",
                "n_image_cd_guard_window_breach_big_selector"
              ]
            },
            {
              "id": 37,
              "title": "Safe cracking",
              "isDefaultAlarm": 0,
              "icons": [
                "n_image_cd_guard_vault_breach_list_selector",
                "n_image_cd_guard_vault_breach_main_selector",
                "n_image_cd_guard_vault_breach_big_selector"
              ]
            }
          ]
        }
      ]
    },
    {
      "id": 11,
      "title": "Door opening detector",
      "subTitle": "Magnetic contact detector Astra-3321",
      "img": "astra_3321",
      "icons": [
        "n_image_astra_3321_list_selector",
        "n_image_astra_3321_main_selector",
        "n_image_astra_3321_big_selector"
      ],
      "detectorTypes": [
        {
          "id": 1,
          "title": "Fire alarm",
          "sectionMask": "4",
          "sectionDefault": 3,
          "isDefaultDetector": 0,
          "alarmTypes": [
            {
              "id": 10,
              "title": "Fire manual alarm",
              "isDefaultAlarm": 0,
              "icons": [
                "n_image_cd_fire_manual_list_selector",
                "n_image_cd_fire_manual_main_selector",
                "n_image_cd_fire_manual_big_selector"
              ]
            },
            {
              "id": 20,
              "title": "Smoke (fire)",
              "isDefaultAlarm": 1,
              "icons": [
                "n_image_cd_fire_smoke_list_selector",
                "n_image_cd_fire_smoke_main_selector",
                "n_image_cd_fire_smoke_big_selector"
              ]
            },
            {
              "id": 21,
              "title": "Fire",
              "isDefaultAlarm": 0,
              "icons": [
                "n_image_cd_fire_fire_list_selector",
                "n_image_cd_fire_fire_main_selector",
                "n_image_cd_fire_fire_big_selector"
              ]
            }
          ]
        },
        {
          "id": 2,
          "title": "Panic button system",
          "sectionMask": "2",
          "sectionDefault": 2,
          "isDefaultDetector": 0,
          "alarmTypes": [
            {
              "id": 10,
              "title": "Manual alarm",
              "isDefaultAlarm": 1,
              "icons": [
                "n_image_cd_alarm_manual_list_selector",
                "n_image_cd_alarm_manual_main_selector",
                "n_image_cd_alarm_manual_big_selector"
              ]
            }
          ]
        },
        {
          "id": 3,
          "title": "Medical alarm",
          "sectionMask": "19",
          "sectionDefault": 5,
          "isDefaultDetector": 0,
          "alarmTypes": [
            {
              "id": 10,
              "title": "Medical manual alarm",
              "isDefaultAlarm": 0,
              "icons": [
                "n_image_cd_medical_manual_list_selector",
                "n_image_cd_medical_manual_main_selector",
                "n_image_cd_medical_manual_big_selector"
              ]
            }
          ]
        },
        {
          "id": 4,
          "title": "Automatic intrusion alarm system",
          "sectionMask": "3",
          "sectionDefault": 1,
          "isDefaultDetector": 1,
          "alarmTypes": [
            {
              "id": 13,
              "title": "External",
              "isDefaultAlarm": 0,
              "icons": [
                "n_image_cd_guard_exterior_list_selector",
                "n_image_cd_guard_exterior_main_selector",
                "n_image_cd_guard_exterior_big_selector"
              ]
            },
            {
              "id": 14,
              "title": "Internal",
              "isDefaultAlarm": 0,
              "icons": [
                "n_image_cd_guard_interior_list_selector",
                "n_image_cd_guard_interior_main_selector",
                "n_image_cd_guard_interior_big_selector"
              ]
            },
            {
              "id": 15,
              "title": "Entrance",
              "isDefaultAlarm": 1,
              "icons": [
                "n_image_cd_guard_entrance_list_selector",
                "n_image_cd_guard_entrance_main_selector",
                "n_image_cd_guard_entrance_big_selector"
              ]
            },
            {
              "id": 16,
              "title": "Intrusion",
              "isDefaultAlarm": 0,
              "icons": [
                "n_image_cd_guard_enter_list_selector",
                "n_image_cd_guard_enter_main_selector",
                "n_image_cd_guard_enter_big_selector"
              ]
            },
            {
              "id": 32,
              "title": "Window oppening",
              "isDefaultAlarm": 0,
              "icons": [
                "n_image_cd_guard_window_open_list_selector",
                "n_image_cd_guard_window_open_main_selector",
                "n_image_cd_guard_window_open_big_selector"
              ]
            },
            {
              "id": 33,
              "title": "Door opening",
              "isDefaultAlarm": 0,
              "icons": [
                "n_image_cd_guard_door_open_list_selector",
                "n_image_cd_guard_door_open_main_selector",
                "n_image_cd_guard_door_open_big_selector"
              ]
            },
            {
              "id": 34,
              "title": "Safe opening",
              "isDefaultAlarm": 0,
              "icons": [
                "n_image_cd_guard_vault_open_list_selector",
                "n_image_cd_guard_vault_open_main_selector",
                "n_image_cd_guard_vault_open_big_selector"
              ]
            },
            {
              "id": 35,
              "title": "Door breaking",
              "isDefaultAlarm": 0,
              "icons": [
                "n_image_cd_guard_door_breach_list_selector",
                "n_image_cd_guard_door_breach_main_selector",
                "n_image_cd_guard_door_breach_big_selector"
              ]
            },
            {
              "id": 36,
              "title": "Window breaking",
              "isDefaultAlarm": 0,
              "icons": [
                "n_image_cd_guard_window_breach_list_selector",
                "n_image_cd_guard_window_breach_main_selector",
                "n_image_cd_guard_window_breach_big_selector"
              ]
            },
            {
              "id": 37,
              "title": "Safe cracking",
              "isDefaultAlarm": 0,
              "icons": [
                "n_image_cd_guard_vault_breach_list_selector",
                "n_image_cd_guard_vault_breach_main_selector",
                "n_image_cd_guard_vault_breach_big_selector"
              ]
            },
            {
              "id": 38,
              "title": "Crossing perimeter",
              "isDefaultAlarm": 0,
              "icons": [
                "n_image_cd_guard_perimeter_cross_list_selector",
                "n_image_cd_guard_perimeter_cross_main_selector",
                "n_image_cd_guard_perimeter_cross_big_selector"
              ]
            },
            {
              "id": 39,
              "title": "Movement on a protected area",
              "isDefaultAlarm": 0,
              "icons": [
                "n_image_cd_guard_area_move_list_selector",
                "n_image_cd_guard_area_move_main_selector",
                "n_image_cd_guard_area_move_big_selector"
              ]
            }
          ]
        },
        {
          "id": 5,
          "title": "Emergency alarm system",
          "sectionMask": "16",
          "sectionDefault": 5,
          "isDefaultDetector": 0,
          "alarmTypes": [
            {
              "id": 10,
              "title": "Manual emergency alarm",
              "isDefaultAlarm": 0,
              "icons": [
                "n_image_cd_tech_manual_list_selector",
                "n_image_cd_tech_manual_main_selector",
                "n_image_cd_tech_manual_big_selector"
              ]
            },
            {
              "id": 20,
              "title": "Smoke (emergency)",
              "isDefaultAlarm": 0,
              "icons": [
                "n_image_cd_tech_smoke_list_selector",
                "n_image_cd_tech_smoke_main_selector",
                "n_image_cd_tech_smoke_big_selector"
              ]
            },
            {
              "id": 22,
              "title": "Gas leakage",
              "isDefaultAlarm": 0,
              "icons": [
                "n_image_cd_tech_gas_list_selector",
                "n_image_cd_tech_gas_main_selector",
                "n_image_cd_tech_gas_big_selector"
              ]
            },
            {
              "id": 23,
              "title": "Water leakage",
              "isDefaultAlarm": 0,
              "icons": [
                "n_image_cd_tech_flood_list_selector",
                "n_image_cd_tech_flood_main_selector",
                "n_image_cd_tech_flood_big_selector"
              ]
            },
            {
              "id": 25,
              "title": "Movement of a construction (emergency)",
              "isDefaultAlarm": 0
            }
          ]
        },
        {
          "id": 6,
          "title": "Telemetry equipment",
          "sectionMask": "16",
          "sectionDefault": 5,
          "isDefaultDetector": 0,
          "alarmTypes": [
            {
              "id": 10,
              "title": "Telemetry manual alarm",
              "isDefaultAlarm": 0,
              "icons": [
                "n_image_cd_tele_manual_list_selector",
                "n_image_cd_tele_manual_main_selector",
                "n_image_cd_tele_manual_big_selector"
              ]
            },
            {
              "id": 18,
              "title": "Temperature decrease",
              "isDefaultAlarm": 0,
              "icons": [
                "n_image_cd_tele_cold_list_selector",
                "n_image_cd_tele_cold_main_selector",
                "n_image_cd_tele_cold_big_selector"
              ]
            },
            {
              "id": 19,
              "title": "Temperature increase",
              "isDefaultAlarm": 0,
              "icons": [
                "n_image_cd_tele_heat_list_selector",
                "n_image_cd_tele_heat_main_selector",
                "n_image_cd_tele_heat_big_selector"
              ]
            }
          ]
        }
      ]
    },
    {
      "id": 12,
      "title": "Motion sensor",
      "subTitle": "Motion detector Astra-5121",
      "img": "astra_5131",
      "icons": [
        "n_image_astra_5121_list_selector",
        "n_image_astra_5121_main_selector",
        "n_image_astra_5121_big_selector"
      ],
      "detectorTypes": [
        {
          "id": 4,
          "title": "Automatic intrusion alarm system",
          "sectionMask": "3",
          "sectionDefault": 1,
          "isDefaultDetector": 1,
          "alarmTypes": [
            {
              "id": 13,
              "title": "External",
              "isDefaultAlarm": 0,
              "icons": [
                "n_image_cd_guard_exterior_list_selector",
                "n_image_cd_guard_exterior_main_selector",
                "n_image_cd_guard_exterior_big_selector"
              ]
            },
            {
              "id": 14,
              "title": "Internal",
              "isDefaultAlarm": 1,
              "icons": [
                "n_image_cd_guard_interior_list_selector",
                "n_image_cd_guard_interior_main_selector",
                "n_image_cd_guard_interior_big_selector"
              ]
            },
            {
              "id": 15,
              "title": "Entrance",
              "isDefaultAlarm": 0,
              "icons": [
                "n_image_cd_guard_entrance_list_selector",
                "n_image_cd_guard_entrance_main_selector",
                "n_image_cd_guard_entrance_big_selector"
              ]
            },
            {
              "id": 16,
              "title": "Intrusion",
              "isDefaultAlarm": 0,
              "icons": [
                "n_image_cd_guard_enter_list_selector",
                "n_image_cd_guard_enter_main_selector",
                "n_image_cd_guard_enter_big_selector"
              ]
            },
            {
              "id": 39,
              "title": "Movement on a protected area",
              "isDefaultAlarm": 0,
              "icons": [
                "n_image_cd_guard_area_move_list_selector",
                "n_image_cd_guard_area_move_main_selector",
                "n_image_cd_guard_area_move_big_selector"
              ]
            }
          ]
        }
      ]
    },
    {
      "id": 13,
      "title": "Smoke detector",
      "subTitle": "Smoke detector Astra-421 ver. RF",
      "img": "astra_421",
      "icons": [
        "n_image_astra_421_rk_list_selector",
        "n_image_astra_421_rk_main_selector",
        "n_image_astra_421_rk_big_selector"
      ],
      "detectorTypes": [
        {
          "id": 1,
          "title": "Fire alarm",
          "sectionMask": "4",
          "sectionDefault": 3,
          "isDefaultDetector": 1,
          "alarmTypes": [
            {
              "id": 20,
              "title": "Smoke",
              "isDefaultAlarm": 1,
              "icons": [
                "n_image_cd_fire_smoke_list_selector",
                "n_image_cd_fire_smoke_main_selector",
                "n_image_cd_fire_smoke_big_selector"
              ]
            }
          ]
        }
      ]
    },
    {
      "id": 15,
      "title": "Keypad",
      "subTitle": "Keypad Astra-8121",
      "img": "ic_astra_8121",
      "icons": [
        "n_image_astra_8121_list_selector",
        "n_image_astra_8121_main_selector",
        "n_image_astra_8121_big_selector"
      ],
      "detectorTypes": [
        {
          "id": 11,
          "title": "Keypad",
          "sectionDefault": 0,
          "isDefaultDetector": 1
        }
      ]
    },
    {
      "id": 2331,
      "title": "Siren",
      "subTitle": "Siren Astra-2331",
      "img": "astra_2331",
      "icons": [
        "n_image_astra_2331_list_selector",
        "n_image_astra_2331_main_selector",
        "n_image_astra_2331_big_selector"
      ],
      "detectorTypes": [
        {
          "id": 25,
          "title": "Siren",
          "sectionDefault": 0,
          "isDefaultDetector": 1
        }
      ]
    },
    {
      "id": 24,
      "title": "Keypad",
      "subTitle": "Keypad Astra-8121",
      "img": "astra_8121",
      "icons": [
        "n_image_astra_8121_list_selector",
        "n_image_astra_8121_main_selector",
        "n_image_astra_8121_big_selector"
      ],
      "detectorTypes": [
        {
          "id": 11,
          "title": "Keypad",
          "sectionDefault": 0,
          "isDefaultDetector": 1
        }
      ]
    },
    {
      "id": 8121,
      "title": "Keypad",
      "subTitle": "Keypad Astra-8121",
      "img": "astra_8121",
      "icons": [
        "n_image_astra_8121_list_selector",
        "n_image_astra_8121_main_selector",
        "n_image_astra_8121_big_selector"
      ],
      "detectorTypes": [
        {
          "id": 11,
          "title": "Keypad",
          "sectionDefault": 0,
          "isDefaultDetector": 1
        }
      ]
    },
    {
      "id": 8131,
      "title": "Keypad",
      "subTitle": "Keypad Astra-8131",
      "img": "astra_8131",
      "icons": [
        "n_image_astra_8121_list_selector",
        "n_image_astra_8121_main_selector",
        "n_image_astra_8121_big_selector"
      ],
      "detectorTypes": [
        {
          "id": 16,
          "title": "Keypad",
          "sectionDefault": 0,
          "isDefaultDetector": 1
        }
      ]
    },
    {
      "id": 8531,
      "title": "RFID reader",
      "subTitle": "RFID reader Astra-8531",
      "img": "astra_8531",
      "detectorTypes": [
        {
          "id": 12,
          "title": "ID reader",
          "sectionDefault": 0,
          "isDefaultDetector": 1
        }
      ]
    },
    {
      "id": 8231,
      "title": "Wireless relay unit",
      "subTitle": "Wireless relay unit Astra-8231",
      "img": "astra_8231",
      "icons": [
        "n_image_astra_8231_list_selector",
        "n_image_astra_8231_main_selector",
        "n_image_astra_8231_big_selector"
      ]
    },
    {
      "id": 8731,
      "title": "Smart socket",
      "subTitle": "Smart socket Astra-8731",
      "img": "astra_8731",
      "icons": [
        "n_image_astra_8731_list_selector",
        "n_image_astra_8731_main_selector",
        "n_image_astra_8731_big_selector"
      ]
    },
    {
      "id": 421,
      "title": "Smoke detector",
      "subTitle": "Smoke detector Astra-421 ver. RF",
      "img": "astra_421rk2",
      "icons": [
        "n_image_astra_421_rk_list_selector",
        "n_image_astra_421_rk_main_selector",
        "n_image_astra_421_rk_big_selector"
      ],
      "detectorTypes": [
        {
          "id": 1,
          "title": "Fire alarm",
          "sectionMask": "4",
          "sectionDefault": 3,
          "isDefaultDetector": 1,
          "alarmTypes": [
            {
              "id": 20,
              "title": "Smoke",
              "isDefaultAlarm": 1,
              "icons": [
                "n_image_cd_fire_smoke_list_selector",
                "n_image_cd_fire_smoke_main_selector",
                "n_image_cd_fire_smoke_big_selector"
              ]
            },
            {
              "id": 21,
              "title": "Fire",
              "isDefaultAlarm": 0,
              "icons": [
                "n_image_cd_fire_fire_list_selector",
                "n_image_cd_fire_fire_main_selector",
                "n_image_cd_fire_fire_big_selector"
              ]
            }
          ]
        }
      ]
    },
    {
      "id": 431,
      "title": "Heat Detector",
      "subTitle": "Heat detector Astra-431 ver. RF",
      "img": "astra_421rk2",
      "icons": [
        "n_image_astra_431_rk_list_selector",
        "n_image_astra_431_rk_main_selector",
        "n_image_astra_431_rk_big_selector"
      ],
      "detectorTypes": [
        {
          "id": 1,
          "title": "Fire alarm",
          "sectionMask": "4",
          "sectionDefault": 3,
          "isDefaultDetector": 1,
          "alarmTypes": [
            {
              "id": 19,
              "title": "Overheat",
              "isDefaultAlarm": 1,
              "icons": [
                "n_image_cd_fire_heat_list_selector",
                "n_image_cd_fire_heat_main_selector",
                "n_image_cd_fire_heat_big_selector"
              ]
            },
            {
              "id": 21,
              "title": "Fire",
              "isDefaultAlarm": 0,
              "icons": [
                "n_image_cd_fire_fire_list_selector",
                "n_image_cd_fire_fire_main_selector",
                "n_image_cd_fire_fire_big_selector"
              ]
            }
          ]
        }
      ]
    },
    {
      "id": 4511,
      "title": "Fire call point",
      "subTitle": "Fire manual call point Astra-4511",
      "img": "astra_4511",
      "icons": [
        "n_image_astra_4511_list_selector",
        "n_image_astra_4511_main_selector",
        "n_image_astra_4511_big_selector"
      ],
      "detectorTypes": [
        {
          "id": 1,
          "title": "Fire alarm",
          "sectionMask": "4",
          "sectionDefault": 3,
          "isDefaultDetector": 1,
          "alarmTypes": [
            {
              "id": 10,
              "title": "Fire manual alarm",
              "isDefaultAlarm": 1,
              "icons": [
                "n_image_cd_fire_manual_list_selector",
                "n_image_cd_fire_manual_main_selector",
                "n_image_cd_fire_manual_big_selector"
              ]
            },
            {
              "id": 20,
              "title": "Smoke",
              "isDefaultAlarm": 1,
              "icons": [
                "n_image_cd_fire_smoke_list_selector",
                "n_image_cd_fire_smoke_main_selector",
                "n_image_cd_fire_smoke_big_selector"
              ]
            },
            {
              "id": 21,
              "title": "Fire",
              "isDefaultAlarm": 0,
              "icons": [
                "n_image_cd_fire_fire_list_selector",
                "n_image_cd_fire_fire_main_selector",
                "n_image_cd_fire_fire_big_selector"
              ]
            }
          ]
        }
      ]
    }
  ]
}
