<svg width="76" height="76" viewBox="0 0 76 76" xmlns="http://www.w3.org/2000/svg">
    <g fill="none" fill-rule="evenodd">
        <path stroke="#414042" stroke-width="1.3" stroke-linecap="round" stroke-linejoin="round" d="m16.548 31.871 5.977 2.55v7.158l-5.977 2.55zM59.3 44.129l-5.977-2.55v-7.158l5.977-2.55z"/>
        <path stroke="#3ABEFF" stroke-width="1.3" fill="#3ABEFF" stroke-linecap="round" stroke-linejoin="round" d="M26.968 16.694h22.065v42H26.968z"/>
        <g stroke="#FFDF57" stroke-linecap="round" stroke-linejoin="round" stroke-width="1.3">
            <path d="M32.484 22.306h1.839M32.484 24.758h1.839M32.484 27.21h1.839M32.484 29.661h1.839"/>
        </g>
        <g stroke="#FFDF57" stroke-linecap="round" stroke-linejoin="round" stroke-width="1.3">
            <path d="M41.677 22.306h1.84M41.677 24.758h1.84M41.677 27.21h1.84M41.677 29.661h1.84M41.677 33.645h1.84"/>
        </g>
        <path stroke="#414042" stroke-width="4.001" stroke-linecap="round" stroke-linejoin="round" d="M16.548 12.871h42.903v50.258H16.548z"/>
        <circle fill="#414042" cx="20.226" cy="38" r="1.226"/>
        <circle fill="#414042" transform="rotate(-180 55.622 38)" cx="55.622" cy="38" r="1.226"/>
    </g>
</svg>
